G04 #@! TF.GenerationSoftware,KiCad,Pcbnew,(5.1.5)-3*
G04 #@! TF.CreationDate,2020-06-03T17:32:02-04:00*
G04 #@! TF.ProjectId,STM32F042_Usb_I2c_Nrf,53544d33-3246-4303-9432-5f5573625f49,rev?*
G04 #@! TF.SameCoordinates,Original*
G04 #@! TF.FileFunction,Copper,L1,Top*
G04 #@! TF.FilePolarity,Positive*
%FSLAX46Y46*%
G04 Gerber Fmt 4.6, Leading zero omitted, Abs format (unit mm)*
G04 Created by KiCad (PCBNEW (5.1.5)-3) date 2020-06-03 17:32:02*
%MOMM*%
%LPD*%
G04 APERTURE LIST*
%ADD10C,0.300000*%
%ADD11R,1.700000X1.700000*%
%ADD12R,1.300000X1.500000*%
%ADD13R,2.300000X0.500000*%
%ADD14R,2.500000X2.000000*%
%ADD15C,1.000000*%
%ADD16R,1.500000X1.250000*%
%ADD17O,1.700000X1.700000*%
%ADD18R,1.200000X0.600000*%
%ADD19R,1.200000X0.500000*%
%ADD20R,0.500000X1.200000*%
%ADD21R,2.000000X3.800000*%
%ADD22R,2.000000X1.500000*%
%ADD23R,1.500000X1.300000*%
%ADD24R,1.200000X0.900000*%
%ADD25R,1.250000X1.500000*%
%ADD26C,0.500000*%
%ADD27C,0.400000*%
%ADD28C,0.254000*%
G04 APERTURE END LIST*
D10*
X147600000Y-86978571D02*
X147600000Y-87335714D01*
X147242857Y-87192857D02*
X147600000Y-87335714D01*
X147957142Y-87192857D01*
X147385714Y-87621428D02*
X147600000Y-87335714D01*
X147814285Y-87621428D01*
D11*
X144200000Y-92600000D03*
D12*
X163200000Y-106500000D03*
X163200000Y-109200000D03*
X160600000Y-109200000D03*
X160600000Y-106500000D03*
D11*
X161400000Y-112200000D03*
D12*
X147800000Y-84150000D03*
X147800000Y-81450000D03*
X153400000Y-82100000D03*
X153400000Y-84800000D03*
D13*
X163100000Y-91900000D03*
X163100000Y-91100000D03*
X163100000Y-90300000D03*
X163100000Y-89500000D03*
X163100000Y-88700000D03*
D14*
X163200000Y-94750000D03*
X168700000Y-94750000D03*
X163200000Y-85850000D03*
X168700000Y-85850000D03*
D15*
X165700000Y-92500000D03*
X165700000Y-88100000D03*
D16*
X153600000Y-75400000D03*
X156100000Y-75400000D03*
D11*
X139900000Y-97300000D03*
D17*
X142440000Y-97300000D03*
X144980000Y-97300000D03*
D18*
X147750000Y-88700000D03*
D19*
X147750000Y-89500000D03*
X147750000Y-90300000D03*
X147750000Y-91100000D03*
X147750000Y-91900000D03*
X147750000Y-92700000D03*
X147750000Y-93500000D03*
X147750000Y-94300000D03*
D20*
X149200000Y-95750000D03*
X150000000Y-95750000D03*
X150800000Y-95750000D03*
X151600000Y-95750000D03*
X152400000Y-95750000D03*
X153200000Y-95750000D03*
X154000000Y-95750000D03*
X154800000Y-95750000D03*
D19*
X156250000Y-94300000D03*
X156250000Y-93500000D03*
X156250000Y-92700000D03*
X156250000Y-91900000D03*
X156250000Y-91100000D03*
X156250000Y-90300000D03*
X156250000Y-89500000D03*
X156250000Y-88700000D03*
D20*
X154800000Y-87250000D03*
X154000000Y-87250000D03*
X153200000Y-87250000D03*
X152400000Y-87250000D03*
X151600000Y-87250000D03*
X150800000Y-87250000D03*
X150000000Y-87250000D03*
X149200000Y-87250000D03*
D21*
X155350000Y-111200000D03*
D22*
X149050000Y-111200000D03*
X149050000Y-113500000D03*
X149050000Y-108900000D03*
D23*
X144600000Y-89600000D03*
X141900000Y-89600000D03*
X141100000Y-94600000D03*
X138400000Y-94600000D03*
D11*
X159600000Y-82600000D03*
D17*
X159600000Y-85140000D03*
X159600000Y-87680000D03*
D11*
X140000000Y-85200000D03*
X145500000Y-101000000D03*
D17*
X145500000Y-103540000D03*
X148040000Y-101000000D03*
X148040000Y-103540000D03*
X150580000Y-101000000D03*
X150580000Y-103540000D03*
X153120000Y-101000000D03*
X153120000Y-103540000D03*
D11*
X156100000Y-78600000D03*
D17*
X153560000Y-78600000D03*
X151020000Y-78600000D03*
X148480000Y-78600000D03*
D11*
X162600000Y-100500000D03*
D17*
X162600000Y-103040000D03*
D24*
X138600000Y-93000000D03*
X140800000Y-93000000D03*
D25*
X144600000Y-87200000D03*
X144600000Y-84700000D03*
X141300000Y-103500000D03*
X141300000Y-101000000D03*
X145500000Y-113400000D03*
X145500000Y-110900000D03*
D26*
X148950000Y-113400000D02*
X149050000Y-113500000D01*
X145500000Y-113400000D02*
X148950000Y-113400000D01*
X161550000Y-91900000D02*
X163100000Y-91900000D01*
X160300000Y-93150000D02*
X161550000Y-91900000D01*
X160249999Y-103150001D02*
X160300000Y-103100000D01*
X160300000Y-103100000D02*
X160300000Y-93150000D01*
X160299998Y-103200000D02*
X160249999Y-103150001D01*
X162600000Y-103040000D02*
X162440000Y-103200000D01*
X162440000Y-103200000D02*
X160299998Y-103200000D01*
X149050000Y-114750000D02*
X150500000Y-116200000D01*
X149050000Y-113500000D02*
X149050000Y-114750000D01*
X150500000Y-116200000D02*
X156000000Y-116200000D01*
X156000000Y-116200000D02*
X159200000Y-113000000D01*
X159200000Y-113000000D02*
X159200000Y-105000000D01*
D10*
X159200000Y-105100000D02*
X159200000Y-105000000D01*
X160600000Y-106500000D02*
X159200000Y-105100000D01*
D26*
X159200000Y-104299998D02*
X160299998Y-103200000D01*
X159200000Y-105000000D02*
X159200000Y-104299998D01*
X141300000Y-101000000D02*
X145500000Y-101000000D01*
X145500000Y-101000000D02*
X146750001Y-102250001D01*
D10*
X146750001Y-102250001D02*
X146750001Y-105099999D01*
X154800000Y-96900000D02*
X154800000Y-95750000D01*
X155050000Y-97150000D02*
X154800000Y-96900000D01*
D26*
X154850000Y-96950000D02*
X155050000Y-97150000D01*
D10*
X152300000Y-79980002D02*
X152300000Y-77100000D01*
D26*
X144375000Y-110900000D02*
X145500000Y-110900000D01*
X165700000Y-94200000D02*
X165700000Y-96500000D01*
X167000000Y-90950000D02*
X167000000Y-92900000D01*
X163100000Y-88700000D02*
X164750000Y-88700000D01*
X164750000Y-88700000D02*
X167000000Y-90950000D01*
X167000000Y-92900000D02*
X165700000Y-94200000D01*
X165700000Y-96500000D02*
X164800000Y-97400000D01*
X139600000Y-101900000D02*
X139600000Y-106125000D01*
X141300000Y-101000000D02*
X140500000Y-101000000D01*
X139600000Y-106125000D02*
X144375000Y-110900000D01*
X140500000Y-101000000D02*
X139600000Y-101900000D01*
X164350000Y-97400000D02*
X164800000Y-97400000D01*
X162600000Y-99150000D02*
X164350000Y-97400000D01*
X162600000Y-100500000D02*
X162600000Y-99150000D01*
D27*
X140275000Y-101000000D02*
X141300000Y-101000000D01*
X139900000Y-100625000D02*
X140275000Y-101000000D01*
X139900000Y-97300000D02*
X139900000Y-100625000D01*
D26*
X148250002Y-106600000D02*
X146750001Y-105099999D01*
X155000000Y-106600000D02*
X148250002Y-106600000D01*
X156600000Y-105000000D02*
X155000000Y-106600000D01*
X155050000Y-97150000D02*
X156600000Y-98700000D01*
X156600000Y-98700000D02*
X156600000Y-105000000D01*
D27*
X156100000Y-75400000D02*
X156100000Y-78600000D01*
D26*
X163100000Y-87950000D02*
X163450000Y-87600000D01*
X165600000Y-86600002D02*
X165600000Y-84640000D01*
X163100000Y-88700000D02*
X163100000Y-87950000D01*
X163450000Y-87600000D02*
X164600002Y-87600000D01*
X159560000Y-78600000D02*
X156100000Y-78600000D01*
X164600002Y-87600000D02*
X165600000Y-86600002D01*
D27*
X160200000Y-80750000D02*
X160200000Y-79400000D01*
D26*
X165600000Y-84640000D02*
X160200000Y-79400000D01*
D27*
X159600000Y-81350000D02*
X160200000Y-80750000D01*
X159600000Y-82600000D02*
X159600000Y-81350000D01*
D26*
X160200000Y-79400000D02*
X159560000Y-78600000D01*
D27*
X155350000Y-80600000D02*
X156100000Y-79850000D01*
X152300000Y-79980002D02*
X152919998Y-80600000D01*
X156100000Y-79850000D02*
X156100000Y-78600000D01*
X152919998Y-80600000D02*
X155350000Y-80600000D01*
D26*
X147100000Y-76300000D02*
X144400000Y-79000000D01*
X151700000Y-76300000D02*
X147100000Y-76300000D01*
X152300000Y-77100000D02*
X152300000Y-76900000D01*
X152300000Y-76900000D02*
X151700000Y-76300000D01*
X144400000Y-83250000D02*
X144400000Y-79000000D01*
X144600000Y-83450000D02*
X144400000Y-83250000D01*
X144600000Y-84700000D02*
X144600000Y-83450000D01*
X149000000Y-86000000D02*
X146400000Y-86000000D01*
X145100000Y-84700000D02*
X144600000Y-84700000D01*
X149200000Y-87250000D02*
X149200000Y-86200000D01*
X146400000Y-86000000D02*
X145100000Y-84700000D01*
X149200000Y-86200000D02*
X149000000Y-86000000D01*
X164800000Y-111600000D02*
X158700000Y-117700000D01*
X143700000Y-111575000D02*
X144375000Y-110900000D01*
X158700000Y-117700000D02*
X146000000Y-117700000D01*
X146000000Y-117700000D02*
X143700000Y-115400000D01*
X143700000Y-115400000D02*
X143700000Y-111575000D01*
D10*
X164150000Y-106500000D02*
X164450000Y-106200000D01*
X163200000Y-106500000D02*
X164150000Y-106500000D01*
D26*
X164800000Y-97400000D02*
X164800000Y-106200000D01*
D10*
X164450000Y-106200000D02*
X164800000Y-106200000D01*
D26*
X164800000Y-106200000D02*
X164800000Y-111600000D01*
D27*
X139800000Y-97200000D02*
X139900000Y-97300000D01*
X139800000Y-96000000D02*
X139800000Y-97200000D01*
X141100000Y-94600000D02*
X141100000Y-94700000D01*
X141100000Y-94700000D02*
X139800000Y-96000000D01*
D26*
X145900000Y-108900000D02*
X149050000Y-108900000D01*
X145500000Y-110900000D02*
X145500000Y-109300000D01*
X145500000Y-109300000D02*
X145900000Y-108900000D01*
X141340000Y-103540000D02*
X141300000Y-103500000D01*
X145500000Y-103540000D02*
X141340000Y-103540000D01*
X148850000Y-91900000D02*
X147750000Y-91900000D01*
X152750000Y-91900000D02*
X148850000Y-91900000D01*
X155150000Y-94300000D02*
X152750000Y-91900000D01*
X156250000Y-94300000D02*
X155150000Y-94300000D01*
X150550000Y-111200000D02*
X152100000Y-109650000D01*
X149050000Y-111200000D02*
X150550000Y-111200000D01*
X152100000Y-109650000D02*
X152100000Y-108000000D01*
X157350000Y-94300000D02*
X156250000Y-94300000D01*
X157900000Y-105100000D02*
X157900000Y-94850000D01*
X157900000Y-94850000D02*
X157350000Y-94300000D01*
X152100000Y-108000000D02*
X155000000Y-108000000D01*
X155000000Y-108000000D02*
X157900000Y-105100000D01*
X151900000Y-91900000D02*
X152750000Y-91900000D01*
X147750000Y-88700000D02*
X148700000Y-88700000D01*
X148700000Y-88700000D02*
X151900000Y-91900000D01*
X145500000Y-105825000D02*
X145500000Y-103540000D01*
X145500000Y-106099998D02*
X145500000Y-105825000D01*
X146800002Y-107400000D02*
X145500000Y-106099998D01*
X152100000Y-108000000D02*
X151500000Y-107400000D01*
X151500000Y-107400000D02*
X146800002Y-107400000D01*
X153600000Y-78560000D02*
X153560000Y-78600000D01*
X153600000Y-75400000D02*
X153600000Y-78560000D01*
X143475000Y-87200000D02*
X144600000Y-87200000D01*
X142600000Y-79200000D02*
X142600000Y-86325000D01*
X142600000Y-86325000D02*
X143475000Y-87200000D01*
X146400000Y-75400000D02*
X142600000Y-79200000D01*
X153600000Y-75400000D02*
X146400000Y-75400000D01*
X145800000Y-87200000D02*
X144600000Y-87200000D01*
X146400000Y-87800000D02*
X145800000Y-87200000D01*
X146400000Y-88400000D02*
X146400000Y-87800000D01*
X147750000Y-88700000D02*
X146700000Y-88700000D01*
X146700000Y-88700000D02*
X146400000Y-88400000D01*
D27*
X146400000Y-88950000D02*
X146400000Y-88400000D01*
X145750000Y-89600000D02*
X146400000Y-88950000D01*
X144600000Y-89600000D02*
X145750000Y-89600000D01*
X138600000Y-94400000D02*
X138400000Y-94600000D01*
X138600000Y-93000000D02*
X138600000Y-94400000D01*
X142600000Y-93800000D02*
X141800000Y-93000000D01*
X146500000Y-93500000D02*
X145400000Y-94600000D01*
X141800000Y-93000000D02*
X140800000Y-93000000D01*
X145400000Y-94600000D02*
X143000000Y-94600000D01*
X147750000Y-93500000D02*
X146500000Y-93500000D01*
X143000000Y-94600000D02*
X142600000Y-94200000D01*
X142600000Y-94200000D02*
X142600000Y-93800000D01*
X151600000Y-83300000D02*
X151600000Y-87250000D01*
X151000000Y-82700000D02*
X151600000Y-83300000D01*
X151020000Y-82680000D02*
X151020000Y-78600000D01*
X151000000Y-82700000D02*
X151020000Y-82680000D01*
X151600000Y-82850000D02*
X151600000Y-83300000D01*
X152350000Y-82100000D02*
X151600000Y-82850000D01*
X153400000Y-82100000D02*
X152350000Y-82100000D01*
X150800000Y-84200000D02*
X150800000Y-87250000D01*
X150200000Y-83600000D02*
X150800000Y-84200000D01*
X148480000Y-79880000D02*
X148480000Y-78600000D01*
X150200000Y-83600000D02*
X150200000Y-81600000D01*
X150200000Y-81600000D02*
X148480000Y-79880000D01*
D26*
X147800000Y-79280000D02*
X148480000Y-78600000D01*
X147800000Y-81450000D02*
X147800000Y-79280000D01*
D27*
X150000000Y-97600000D02*
X150000000Y-95750000D01*
X148040000Y-101000000D02*
X148040000Y-99560000D01*
X148040000Y-99560000D02*
X150000000Y-97600000D01*
X153200000Y-96750000D02*
X153200000Y-95750000D01*
X150350010Y-105850010D02*
X154349990Y-105850010D01*
X154349990Y-105850010D02*
X155600000Y-104600000D01*
X148040000Y-103540000D02*
X150350010Y-105850010D01*
X155600000Y-104600000D02*
X155600000Y-99150000D01*
X155600000Y-99150000D02*
X153200000Y-96750000D01*
X150800000Y-97800000D02*
X150800000Y-95750000D01*
X150580000Y-101000000D02*
X150580000Y-98020000D01*
X150580000Y-98020000D02*
X150800000Y-97800000D01*
X152400000Y-96750000D02*
X152400000Y-95750000D01*
X150580000Y-103540000D02*
X152240000Y-105200000D01*
X152400000Y-96889966D02*
X152400000Y-96750000D01*
X154800000Y-104200000D02*
X154800000Y-99289966D01*
X152240000Y-105200000D02*
X153800000Y-105200000D01*
X153800000Y-105200000D02*
X154800000Y-104200000D01*
X154800000Y-99289966D02*
X152400000Y-96889966D01*
X151600000Y-97800000D02*
X151600000Y-95750000D01*
X153120000Y-101000000D02*
X153120000Y-99320000D01*
X153120000Y-99320000D02*
X151600000Y-97800000D01*
X141900000Y-90650000D02*
X141900000Y-89600000D01*
X142350000Y-91100000D02*
X141900000Y-90650000D01*
X147750000Y-91100000D02*
X142350000Y-91100000D01*
X140750000Y-89600000D02*
X141900000Y-89600000D01*
X140000000Y-88850000D02*
X140750000Y-89600000D01*
X140000000Y-85200000D02*
X140000000Y-88850000D01*
X157800000Y-86940000D02*
X159600000Y-85140000D01*
X157800000Y-88200000D02*
X157800000Y-86940000D01*
X156250000Y-88700000D02*
X157300000Y-88700000D01*
X157300000Y-88700000D02*
X157800000Y-88200000D01*
D10*
X156250000Y-89500000D02*
X157700000Y-89500000D01*
D27*
X159600000Y-89000000D02*
X159600000Y-87680000D01*
X157700000Y-89500000D02*
X159100000Y-89500000D01*
X159100000Y-89500000D02*
X159600000Y-89000000D01*
X163100000Y-91100000D02*
X156250000Y-91100000D01*
X156250000Y-90300000D02*
X163100000Y-90300000D01*
X146750000Y-94300000D02*
X145550000Y-95500000D01*
X147750000Y-94300000D02*
X146750000Y-94300000D01*
X145550000Y-95500000D02*
X144240000Y-95500000D01*
X144240000Y-95500000D02*
X142440000Y-97300000D01*
X148900000Y-97300000D02*
X147200000Y-97300000D01*
X147200000Y-97300000D02*
X144980000Y-97300000D01*
X149200000Y-95750000D02*
X149200000Y-97000000D01*
X149200000Y-97000000D02*
X148900000Y-97300000D01*
X152400000Y-85800000D02*
X153400000Y-84800000D01*
X152400000Y-87250000D02*
X152400000Y-85800000D01*
D26*
X148950000Y-84150000D02*
X147800000Y-84150000D01*
X150000000Y-85200000D02*
X148950000Y-84150000D01*
X150000000Y-87250000D02*
X150000000Y-85200000D01*
D10*
X160600000Y-109200000D02*
X163200000Y-109200000D01*
X161400000Y-111050000D02*
X160600000Y-110250000D01*
X160600000Y-110250000D02*
X160600000Y-109200000D01*
X161400000Y-112200000D02*
X161400000Y-111050000D01*
D27*
X144300000Y-92700000D02*
X144200000Y-92600000D01*
X147750000Y-92700000D02*
X144300000Y-92700000D01*
D28*
G36*
X168416425Y-73896917D02*
G01*
X168816981Y-74017852D01*
X169186427Y-74214290D01*
X169510675Y-74478741D01*
X169777386Y-74801139D01*
X169976395Y-75169199D01*
X170100125Y-75568906D01*
X170148001Y-76024414D01*
X170148001Y-84045850D01*
X170112120Y-84034966D01*
X169950000Y-84018999D01*
X167450000Y-84018999D01*
X167287880Y-84034966D01*
X167131990Y-84082255D01*
X166988321Y-84159048D01*
X166862394Y-84262394D01*
X166759048Y-84388321D01*
X166682255Y-84531990D01*
X166634966Y-84687880D01*
X166618999Y-84850000D01*
X166618999Y-86850000D01*
X166634966Y-87012120D01*
X166682255Y-87168010D01*
X166725412Y-87248751D01*
X166545913Y-87069252D01*
X166328570Y-86924028D01*
X166087072Y-86823996D01*
X165830698Y-86773000D01*
X165569302Y-86773000D01*
X165312928Y-86823996D01*
X165281001Y-86837221D01*
X165281001Y-84850000D01*
X165265034Y-84687880D01*
X165217745Y-84531990D01*
X165140952Y-84388321D01*
X165037606Y-84262394D01*
X164911679Y-84159048D01*
X164768010Y-84082255D01*
X164612120Y-84034966D01*
X164450000Y-84018999D01*
X161950000Y-84018999D01*
X161787880Y-84034966D01*
X161631990Y-84082255D01*
X161488321Y-84159048D01*
X161362394Y-84262394D01*
X161259048Y-84388321D01*
X161182255Y-84531990D01*
X161174253Y-84558370D01*
X161086138Y-84345643D01*
X160902611Y-84070975D01*
X160808712Y-83977076D01*
X160901185Y-83901185D01*
X160980537Y-83804494D01*
X161039502Y-83694180D01*
X161075812Y-83574482D01*
X161088072Y-83450000D01*
X161085000Y-82885750D01*
X160926250Y-82727000D01*
X159727000Y-82727000D01*
X159727000Y-82747000D01*
X159473000Y-82747000D01*
X159473000Y-82727000D01*
X158273750Y-82727000D01*
X158115000Y-82885750D01*
X158111928Y-83450000D01*
X158124188Y-83574482D01*
X158160498Y-83694180D01*
X158219463Y-83804494D01*
X158298815Y-83901185D01*
X158391288Y-83977076D01*
X158297389Y-84070975D01*
X158113862Y-84345643D01*
X157987446Y-84650837D01*
X157923000Y-84974830D01*
X157923000Y-85305170D01*
X157932861Y-85354743D01*
X157109476Y-86178128D01*
X157070289Y-86210288D01*
X157038129Y-86249475D01*
X157038128Y-86249476D01*
X156941950Y-86366669D01*
X156846586Y-86545083D01*
X156787861Y-86738673D01*
X156768032Y-86940000D01*
X156773001Y-86990450D01*
X156773000Y-87618999D01*
X155881001Y-87618999D01*
X155881001Y-86650000D01*
X155865034Y-86487880D01*
X155817745Y-86331990D01*
X155740952Y-86188321D01*
X155637606Y-86062394D01*
X155511679Y-85959048D01*
X155368010Y-85882255D01*
X155212120Y-85834966D01*
X155050000Y-85818999D01*
X154832612Y-85818999D01*
X154865034Y-85712120D01*
X154881001Y-85550000D01*
X154881001Y-84050000D01*
X154865034Y-83887880D01*
X154817745Y-83731990D01*
X154740952Y-83588321D01*
X154637606Y-83462394D01*
X154622504Y-83450000D01*
X154637606Y-83437606D01*
X154740952Y-83311679D01*
X154817745Y-83168010D01*
X154865034Y-83012120D01*
X154881001Y-82850000D01*
X154881001Y-81750000D01*
X158111928Y-81750000D01*
X158115000Y-82314250D01*
X158273750Y-82473000D01*
X159473000Y-82473000D01*
X159473000Y-81273750D01*
X159727000Y-81273750D01*
X159727000Y-82473000D01*
X160926250Y-82473000D01*
X161085000Y-82314250D01*
X161088072Y-81750000D01*
X161075812Y-81625518D01*
X161039502Y-81505820D01*
X160980537Y-81395506D01*
X160901185Y-81298815D01*
X160804494Y-81219463D01*
X160694180Y-81160498D01*
X160574482Y-81124188D01*
X160450000Y-81111928D01*
X159885750Y-81115000D01*
X159727000Y-81273750D01*
X159473000Y-81273750D01*
X159314250Y-81115000D01*
X158750000Y-81111928D01*
X158625518Y-81124188D01*
X158505820Y-81160498D01*
X158395506Y-81219463D01*
X158298815Y-81298815D01*
X158219463Y-81395506D01*
X158160498Y-81505820D01*
X158124188Y-81625518D01*
X158111928Y-81750000D01*
X154881001Y-81750000D01*
X154881001Y-81350000D01*
X154865034Y-81187880D01*
X154817745Y-81031990D01*
X154740952Y-80888321D01*
X154637606Y-80762394D01*
X154511679Y-80659048D01*
X154368010Y-80582255D01*
X154212120Y-80534966D01*
X154050000Y-80518999D01*
X152750000Y-80518999D01*
X152587880Y-80534966D01*
X152431990Y-80582255D01*
X152288321Y-80659048D01*
X152162394Y-80762394D01*
X152059048Y-80888321D01*
X152047000Y-80910861D01*
X152047000Y-79930691D01*
X152089025Y-79902611D01*
X152290000Y-79701636D01*
X152490975Y-79902611D01*
X152765643Y-80086138D01*
X153070837Y-80212554D01*
X153394830Y-80277000D01*
X153725170Y-80277000D01*
X154049163Y-80212554D01*
X154354357Y-80086138D01*
X154629025Y-79902611D01*
X154722924Y-79808712D01*
X154798815Y-79901185D01*
X154895506Y-79980537D01*
X155005820Y-80039502D01*
X155125518Y-80075812D01*
X155250000Y-80088072D01*
X155814250Y-80085000D01*
X155973000Y-79926250D01*
X155973000Y-78727000D01*
X156227000Y-78727000D01*
X156227000Y-79926250D01*
X156385750Y-80085000D01*
X156950000Y-80088072D01*
X157074482Y-80075812D01*
X157194180Y-80039502D01*
X157304494Y-79980537D01*
X157401185Y-79901185D01*
X157480537Y-79804494D01*
X157539502Y-79694180D01*
X157575812Y-79574482D01*
X157588072Y-79450000D01*
X157585000Y-78885750D01*
X157426250Y-78727000D01*
X156227000Y-78727000D01*
X155973000Y-78727000D01*
X155953000Y-78727000D01*
X155953000Y-78473000D01*
X155973000Y-78473000D01*
X155973000Y-77273750D01*
X156227000Y-77273750D01*
X156227000Y-78473000D01*
X157426250Y-78473000D01*
X157585000Y-78314250D01*
X157588072Y-77750000D01*
X157575812Y-77625518D01*
X157539502Y-77505820D01*
X157480537Y-77395506D01*
X157401185Y-77298815D01*
X157304494Y-77219463D01*
X157194180Y-77160498D01*
X157074482Y-77124188D01*
X156950000Y-77111928D01*
X156385750Y-77115000D01*
X156227000Y-77273750D01*
X155973000Y-77273750D01*
X155814250Y-77115000D01*
X155250000Y-77111928D01*
X155125518Y-77124188D01*
X155005820Y-77160498D01*
X154895506Y-77219463D01*
X154798815Y-77298815D01*
X154722924Y-77391288D01*
X154677000Y-77345364D01*
X154677000Y-76787940D01*
X154727473Y-76760961D01*
X164573000Y-76760961D01*
X164573000Y-77239039D01*
X164666268Y-77707930D01*
X164849221Y-78149615D01*
X165114826Y-78547122D01*
X165452878Y-78885174D01*
X165850385Y-79150779D01*
X166292070Y-79333732D01*
X166760961Y-79427000D01*
X167239039Y-79427000D01*
X167707930Y-79333732D01*
X168149615Y-79150779D01*
X168547122Y-78885174D01*
X168885174Y-78547122D01*
X169150779Y-78149615D01*
X169333732Y-77707930D01*
X169427000Y-77239039D01*
X169427000Y-76760961D01*
X169333732Y-76292070D01*
X169150779Y-75850385D01*
X168885174Y-75452878D01*
X168547122Y-75114826D01*
X168149615Y-74849221D01*
X167707930Y-74666268D01*
X167239039Y-74573000D01*
X166760961Y-74573000D01*
X166292070Y-74666268D01*
X165850385Y-74849221D01*
X165452878Y-75114826D01*
X165114826Y-75452878D01*
X164849221Y-75850385D01*
X164666268Y-76292070D01*
X164573000Y-76760961D01*
X154727473Y-76760961D01*
X154811679Y-76715952D01*
X154937606Y-76612606D01*
X154988894Y-76550111D01*
X154995506Y-76555537D01*
X155105820Y-76614502D01*
X155225518Y-76650812D01*
X155350000Y-76663072D01*
X155814250Y-76660000D01*
X155973000Y-76501250D01*
X155973000Y-75527000D01*
X156227000Y-75527000D01*
X156227000Y-76501250D01*
X156385750Y-76660000D01*
X156850000Y-76663072D01*
X156974482Y-76650812D01*
X157094180Y-76614502D01*
X157204494Y-76555537D01*
X157301185Y-76476185D01*
X157380537Y-76379494D01*
X157439502Y-76269180D01*
X157475812Y-76149482D01*
X157488072Y-76025000D01*
X157485000Y-75685750D01*
X157326250Y-75527000D01*
X156227000Y-75527000D01*
X155973000Y-75527000D01*
X155953000Y-75527000D01*
X155953000Y-75273000D01*
X155973000Y-75273000D01*
X155973000Y-74298750D01*
X156227000Y-74298750D01*
X156227000Y-75273000D01*
X157326250Y-75273000D01*
X157485000Y-75114250D01*
X157488072Y-74775000D01*
X157475812Y-74650518D01*
X157439502Y-74530820D01*
X157380537Y-74420506D01*
X157301185Y-74323815D01*
X157204494Y-74244463D01*
X157094180Y-74185498D01*
X156974482Y-74149188D01*
X156850000Y-74136928D01*
X156385750Y-74140000D01*
X156227000Y-74298750D01*
X155973000Y-74298750D01*
X155814250Y-74140000D01*
X155350000Y-74136928D01*
X155225518Y-74149188D01*
X155105820Y-74185498D01*
X154995506Y-74244463D01*
X154988894Y-74249889D01*
X154937606Y-74187394D01*
X154811679Y-74084048D01*
X154668010Y-74007255D01*
X154512120Y-73959966D01*
X154350000Y-73943999D01*
X152850000Y-73943999D01*
X152687880Y-73959966D01*
X152531990Y-74007255D01*
X152388321Y-74084048D01*
X152262394Y-74187394D01*
X152159048Y-74313321D01*
X152153874Y-74323000D01*
X146452909Y-74323000D01*
X146400000Y-74317789D01*
X146188870Y-74338583D01*
X145985855Y-74400167D01*
X145798755Y-74500174D01*
X145760535Y-74531541D01*
X145634761Y-74634761D01*
X145601032Y-74675860D01*
X141875866Y-78401027D01*
X141834761Y-78434761D01*
X141700174Y-78598756D01*
X141600167Y-78785857D01*
X141538583Y-78988872D01*
X141525853Y-79118128D01*
X141517789Y-79200000D01*
X141523000Y-79252907D01*
X141523001Y-83866447D01*
X141437606Y-83762394D01*
X141311679Y-83659048D01*
X141168010Y-83582255D01*
X141012120Y-83534966D01*
X140850000Y-83518999D01*
X139150000Y-83518999D01*
X138987880Y-83534966D01*
X138831990Y-83582255D01*
X138688321Y-83659048D01*
X138562394Y-83762394D01*
X138459048Y-83888321D01*
X138382255Y-84031990D01*
X138334966Y-84187880D01*
X138318999Y-84350000D01*
X138318999Y-86050000D01*
X138334966Y-86212120D01*
X138382255Y-86368010D01*
X138459048Y-86511679D01*
X138562394Y-86637606D01*
X138688321Y-86740952D01*
X138831990Y-86817745D01*
X138973000Y-86860520D01*
X138973001Y-88799549D01*
X138968032Y-88850000D01*
X138973001Y-88900451D01*
X138987861Y-89051327D01*
X139046586Y-89244917D01*
X139141950Y-89423331D01*
X139270289Y-89579712D01*
X139309476Y-89611872D01*
X139988127Y-90290524D01*
X140020288Y-90329712D01*
X140176669Y-90458051D01*
X140355083Y-90553415D01*
X140380133Y-90561014D01*
X140382255Y-90568010D01*
X140459048Y-90711679D01*
X140562394Y-90837606D01*
X140688321Y-90940952D01*
X140831990Y-91017745D01*
X140951428Y-91053976D01*
X141041949Y-91223331D01*
X141170288Y-91379712D01*
X141209481Y-91411877D01*
X141529342Y-91731738D01*
X141400000Y-91718999D01*
X140200000Y-91718999D01*
X140037880Y-91734966D01*
X139881990Y-91782255D01*
X139738321Y-91859048D01*
X139700000Y-91890497D01*
X139661679Y-91859048D01*
X139518010Y-91782255D01*
X139362120Y-91734966D01*
X139200000Y-91718999D01*
X138000000Y-91718999D01*
X137837880Y-91734966D01*
X137681990Y-91782255D01*
X137538321Y-91859048D01*
X137412394Y-91962394D01*
X137309048Y-92088321D01*
X137232255Y-92231990D01*
X137184966Y-92387880D01*
X137168999Y-92550000D01*
X137168999Y-93274905D01*
X137062394Y-93362394D01*
X136959048Y-93488321D01*
X136882255Y-93631990D01*
X136834966Y-93787880D01*
X136818999Y-93950000D01*
X136818999Y-95250000D01*
X136834966Y-95412120D01*
X136882255Y-95568010D01*
X136959048Y-95711679D01*
X137062394Y-95837606D01*
X137188321Y-95940952D01*
X137331990Y-96017745D01*
X137487880Y-96065034D01*
X137650000Y-96081001D01*
X138531367Y-96081001D01*
X138519463Y-96095506D01*
X138460498Y-96205820D01*
X138424188Y-96325518D01*
X138411928Y-96450000D01*
X138415000Y-97014250D01*
X138573750Y-97173000D01*
X139773000Y-97173000D01*
X139773000Y-95973750D01*
X139682270Y-95883020D01*
X139737606Y-95837606D01*
X139840952Y-95711679D01*
X139867171Y-95662627D01*
X139898815Y-95701185D01*
X139995506Y-95780537D01*
X140105820Y-95839502D01*
X140148347Y-95852403D01*
X140027000Y-95973750D01*
X140027000Y-97173000D01*
X140047000Y-97173000D01*
X140047000Y-97427000D01*
X140027000Y-97427000D01*
X140027000Y-98626250D01*
X140185750Y-98785000D01*
X140750000Y-98788072D01*
X140874482Y-98775812D01*
X140994180Y-98739502D01*
X141104494Y-98680537D01*
X141201185Y-98601185D01*
X141277076Y-98508712D01*
X141370975Y-98602611D01*
X141645643Y-98786138D01*
X141950837Y-98912554D01*
X142274830Y-98977000D01*
X142605170Y-98977000D01*
X142929163Y-98912554D01*
X143234357Y-98786138D01*
X143509025Y-98602611D01*
X143710000Y-98401636D01*
X143910975Y-98602611D01*
X144185643Y-98786138D01*
X144490837Y-98912554D01*
X144814830Y-98977000D01*
X145145170Y-98977000D01*
X145469163Y-98912554D01*
X145774357Y-98786138D01*
X146049025Y-98602611D01*
X146282611Y-98369025D01*
X146310691Y-98327000D01*
X147820603Y-98327000D01*
X147349476Y-98798128D01*
X147310289Y-98830288D01*
X147278129Y-98869475D01*
X147278128Y-98869476D01*
X147181950Y-98986669D01*
X147086586Y-99165083D01*
X147027861Y-99358673D01*
X147008032Y-99560000D01*
X147013001Y-99610450D01*
X147013001Y-99669308D01*
X146970975Y-99697389D01*
X146877076Y-99791288D01*
X146801185Y-99698815D01*
X146704494Y-99619463D01*
X146594180Y-99560498D01*
X146474482Y-99524188D01*
X146350000Y-99511928D01*
X145785750Y-99515000D01*
X145627000Y-99673750D01*
X145627000Y-100873000D01*
X145647000Y-100873000D01*
X145647000Y-101127000D01*
X145627000Y-101127000D01*
X145627000Y-101147000D01*
X145373000Y-101147000D01*
X145373000Y-101127000D01*
X144173750Y-101127000D01*
X144015000Y-101285750D01*
X144011928Y-101850000D01*
X144024188Y-101974482D01*
X144060498Y-102094180D01*
X144119463Y-102204494D01*
X144198815Y-102301185D01*
X144291288Y-102377076D01*
X144205364Y-102463000D01*
X142702152Y-102463000D01*
X142692745Y-102431990D01*
X142615952Y-102288321D01*
X142512606Y-102162394D01*
X142450111Y-102111106D01*
X142455537Y-102104494D01*
X142514502Y-101994180D01*
X142550812Y-101874482D01*
X142563072Y-101750000D01*
X142560000Y-101285750D01*
X142401250Y-101127000D01*
X141427000Y-101127000D01*
X141427000Y-101147000D01*
X141173000Y-101147000D01*
X141173000Y-101127000D01*
X140198750Y-101127000D01*
X140040000Y-101285750D01*
X140036928Y-101750000D01*
X140049188Y-101874482D01*
X140085498Y-101994180D01*
X140144463Y-102104494D01*
X140149889Y-102111106D01*
X140087394Y-102162394D01*
X139984048Y-102288321D01*
X139907255Y-102431990D01*
X139859966Y-102587880D01*
X139843999Y-102750000D01*
X139843999Y-104250000D01*
X139859966Y-104412120D01*
X139907255Y-104568010D01*
X139984048Y-104711679D01*
X140087394Y-104837606D01*
X140213321Y-104940952D01*
X140356990Y-105017745D01*
X140512880Y-105065034D01*
X140675000Y-105081001D01*
X141925000Y-105081001D01*
X142087120Y-105065034D01*
X142243010Y-105017745D01*
X142386679Y-104940952D01*
X142512606Y-104837606D01*
X142615952Y-104711679D01*
X142666559Y-104617000D01*
X144205364Y-104617000D01*
X144423000Y-104834636D01*
X144423000Y-106047091D01*
X144417789Y-106099998D01*
X144423000Y-106152905D01*
X144423000Y-106152906D01*
X144438583Y-106311126D01*
X144500167Y-106514141D01*
X144600174Y-106701242D01*
X144734761Y-106865237D01*
X144775865Y-106898970D01*
X146001034Y-108124140D01*
X146034763Y-108165239D01*
X146198758Y-108299826D01*
X146385858Y-108399833D01*
X146588873Y-108461417D01*
X146747093Y-108477000D01*
X146747094Y-108477000D01*
X146800001Y-108482211D01*
X146852908Y-108477000D01*
X147414092Y-108477000D01*
X147415000Y-108614250D01*
X147573750Y-108773000D01*
X148923000Y-108773000D01*
X148923000Y-108753000D01*
X149177000Y-108753000D01*
X149177000Y-108773000D01*
X150526250Y-108773000D01*
X150685000Y-108614250D01*
X150685908Y-108477000D01*
X151023000Y-108477000D01*
X151023000Y-109203892D01*
X150687341Y-109539551D01*
X150685000Y-109185750D01*
X150526250Y-109027000D01*
X149177000Y-109027000D01*
X149177000Y-109047000D01*
X148923000Y-109047000D01*
X148923000Y-109027000D01*
X147573750Y-109027000D01*
X147415000Y-109185750D01*
X147411928Y-109650000D01*
X147424188Y-109774482D01*
X147453970Y-109872659D01*
X147359048Y-109988321D01*
X147282255Y-110131990D01*
X147234966Y-110287880D01*
X147218999Y-110450000D01*
X147218999Y-111950000D01*
X147234966Y-112112120D01*
X147282255Y-112268010D01*
X147311648Y-112323000D01*
X146887940Y-112323000D01*
X146815952Y-112188321D01*
X146712606Y-112062394D01*
X146650111Y-112011106D01*
X146655537Y-112004494D01*
X146714502Y-111894180D01*
X146750812Y-111774482D01*
X146763072Y-111650000D01*
X146760000Y-111185750D01*
X146601250Y-111027000D01*
X145627000Y-111027000D01*
X145627000Y-111047000D01*
X145373000Y-111047000D01*
X145373000Y-111027000D01*
X144398750Y-111027000D01*
X144240000Y-111185750D01*
X144236928Y-111650000D01*
X144249188Y-111774482D01*
X144285498Y-111894180D01*
X144344463Y-112004494D01*
X144349889Y-112011106D01*
X144287394Y-112062394D01*
X144184048Y-112188321D01*
X144107255Y-112331990D01*
X144059966Y-112487880D01*
X144043999Y-112650000D01*
X144043999Y-114150000D01*
X144059966Y-114312120D01*
X144107255Y-114468010D01*
X144184048Y-114611679D01*
X144287394Y-114737606D01*
X144413321Y-114840952D01*
X144556990Y-114917745D01*
X144712880Y-114965034D01*
X144875000Y-114981001D01*
X146125000Y-114981001D01*
X146287120Y-114965034D01*
X146443010Y-114917745D01*
X146586679Y-114840952D01*
X146712606Y-114737606D01*
X146815952Y-114611679D01*
X146887940Y-114477000D01*
X147254647Y-114477000D01*
X147282255Y-114568010D01*
X147359048Y-114711679D01*
X147462394Y-114837606D01*
X147588321Y-114940952D01*
X147731990Y-115017745D01*
X147887880Y-115065034D01*
X148024175Y-115078458D01*
X148050168Y-115164144D01*
X148150175Y-115351244D01*
X148284762Y-115515239D01*
X148325861Y-115548968D01*
X149701032Y-116924140D01*
X149734761Y-116965239D01*
X149798229Y-117017326D01*
X149898755Y-117099826D01*
X149938727Y-117121191D01*
X150085856Y-117199833D01*
X150215566Y-117239180D01*
X150288870Y-117261417D01*
X150500000Y-117282211D01*
X150552909Y-117277000D01*
X155947093Y-117277000D01*
X156000000Y-117282211D01*
X156052907Y-117277000D01*
X156052909Y-117277000D01*
X156211129Y-117261417D01*
X156414144Y-117199833D01*
X156601244Y-117099826D01*
X156765239Y-116965239D01*
X156798973Y-116924134D01*
X158962146Y-114760961D01*
X164573000Y-114760961D01*
X164573000Y-115239039D01*
X164666268Y-115707930D01*
X164849221Y-116149615D01*
X165114826Y-116547122D01*
X165452878Y-116885174D01*
X165850385Y-117150779D01*
X166292070Y-117333732D01*
X166760961Y-117427000D01*
X167239039Y-117427000D01*
X167707930Y-117333732D01*
X168149615Y-117150779D01*
X168547122Y-116885174D01*
X168885174Y-116547122D01*
X169150779Y-116149615D01*
X169333732Y-115707930D01*
X169427000Y-115239039D01*
X169427000Y-114760961D01*
X169333732Y-114292070D01*
X169150779Y-113850385D01*
X168885174Y-113452878D01*
X168547122Y-113114826D01*
X168149615Y-112849221D01*
X167707930Y-112666268D01*
X167239039Y-112573000D01*
X166760961Y-112573000D01*
X166292070Y-112666268D01*
X165850385Y-112849221D01*
X165452878Y-113114826D01*
X165114826Y-113452878D01*
X164849221Y-113850385D01*
X164666268Y-114292070D01*
X164573000Y-114760961D01*
X158962146Y-114760961D01*
X159924140Y-113798968D01*
X159965239Y-113765239D01*
X160026684Y-113690368D01*
X160088321Y-113740952D01*
X160231990Y-113817745D01*
X160387880Y-113865034D01*
X160550000Y-113881001D01*
X162250000Y-113881001D01*
X162412120Y-113865034D01*
X162568010Y-113817745D01*
X162711679Y-113740952D01*
X162837606Y-113637606D01*
X162940952Y-113511679D01*
X163017745Y-113368010D01*
X163065034Y-113212120D01*
X163081001Y-113050000D01*
X163081001Y-111350000D01*
X163065034Y-111187880D01*
X163017745Y-111031990D01*
X162940952Y-110888321D01*
X162852876Y-110781001D01*
X163850000Y-110781001D01*
X164012120Y-110765034D01*
X164168010Y-110717745D01*
X164311679Y-110640952D01*
X164437606Y-110537606D01*
X164540952Y-110411679D01*
X164617745Y-110268010D01*
X164665034Y-110112120D01*
X164681001Y-109950000D01*
X164681001Y-108450000D01*
X164665034Y-108287880D01*
X164617745Y-108131990D01*
X164540952Y-107988321D01*
X164437606Y-107862394D01*
X164311679Y-107759048D01*
X164262627Y-107732829D01*
X164301185Y-107701185D01*
X164380537Y-107604494D01*
X164439502Y-107494180D01*
X164475812Y-107374482D01*
X164488072Y-107250000D01*
X164485000Y-106785750D01*
X164326250Y-106627000D01*
X163327000Y-106627000D01*
X163327000Y-106647000D01*
X163073000Y-106647000D01*
X163073000Y-106627000D01*
X163053000Y-106627000D01*
X163053000Y-106373000D01*
X163073000Y-106373000D01*
X163073000Y-105273750D01*
X163327000Y-105273750D01*
X163327000Y-106373000D01*
X164326250Y-106373000D01*
X164485000Y-106214250D01*
X164488072Y-105750000D01*
X164475812Y-105625518D01*
X164439502Y-105505820D01*
X164380537Y-105395506D01*
X164301185Y-105298815D01*
X164204494Y-105219463D01*
X164094180Y-105160498D01*
X163974482Y-105124188D01*
X163850000Y-105111928D01*
X163485750Y-105115000D01*
X163327000Y-105273750D01*
X163073000Y-105273750D01*
X162914250Y-105115000D01*
X162550000Y-105111928D01*
X162425518Y-105124188D01*
X162305820Y-105160498D01*
X162195506Y-105219463D01*
X162098815Y-105298815D01*
X162019463Y-105395506D01*
X162008853Y-105415355D01*
X161940952Y-105288321D01*
X161837606Y-105162394D01*
X161711679Y-105059048D01*
X161568010Y-104982255D01*
X161412120Y-104934966D01*
X161250000Y-104918999D01*
X160400685Y-104918999D01*
X160277000Y-104795314D01*
X160277000Y-104746105D01*
X160746106Y-104277000D01*
X161465364Y-104277000D01*
X161530975Y-104342611D01*
X161805643Y-104526138D01*
X162110837Y-104652554D01*
X162434830Y-104717000D01*
X162765170Y-104717000D01*
X163089163Y-104652554D01*
X163394357Y-104526138D01*
X163669025Y-104342611D01*
X163902611Y-104109025D01*
X164086138Y-103834357D01*
X164212554Y-103529163D01*
X164277000Y-103205170D01*
X164277000Y-102874830D01*
X164212554Y-102550837D01*
X164086138Y-102245643D01*
X163902611Y-101970975D01*
X163808712Y-101877076D01*
X163901185Y-101801185D01*
X163980537Y-101704494D01*
X164039502Y-101594180D01*
X164075812Y-101474482D01*
X164088072Y-101350000D01*
X164085000Y-100785750D01*
X163926250Y-100627000D01*
X162727000Y-100627000D01*
X162727000Y-100647000D01*
X162473000Y-100647000D01*
X162473000Y-100627000D01*
X162453000Y-100627000D01*
X162453000Y-100373000D01*
X162473000Y-100373000D01*
X162473000Y-99173750D01*
X162727000Y-99173750D01*
X162727000Y-100373000D01*
X163926250Y-100373000D01*
X164085000Y-100214250D01*
X164088072Y-99650000D01*
X164075812Y-99525518D01*
X164039502Y-99405820D01*
X163980537Y-99295506D01*
X163901185Y-99198815D01*
X163804494Y-99119463D01*
X163694180Y-99060498D01*
X163574482Y-99024188D01*
X163450000Y-99011928D01*
X162885750Y-99015000D01*
X162727000Y-99173750D01*
X162473000Y-99173750D01*
X162314250Y-99015000D01*
X161750000Y-99011928D01*
X161625518Y-99024188D01*
X161505820Y-99060498D01*
X161395506Y-99119463D01*
X161377000Y-99134650D01*
X161377000Y-96349593D01*
X161488321Y-96440952D01*
X161631990Y-96517745D01*
X161787880Y-96565034D01*
X161950000Y-96581001D01*
X164450000Y-96581001D01*
X164612120Y-96565034D01*
X164768010Y-96517745D01*
X164911679Y-96440952D01*
X165037606Y-96337606D01*
X165140952Y-96211679D01*
X165217745Y-96068010D01*
X165265034Y-95912120D01*
X165281001Y-95750000D01*
X165281001Y-93762779D01*
X165312928Y-93776004D01*
X165569302Y-93827000D01*
X165830698Y-93827000D01*
X166087072Y-93776004D01*
X166328570Y-93675972D01*
X166545913Y-93530748D01*
X166725412Y-93351249D01*
X166682255Y-93431990D01*
X166634966Y-93587880D01*
X166618999Y-93750000D01*
X166618999Y-95750000D01*
X166634966Y-95912120D01*
X166682255Y-96068010D01*
X166759048Y-96211679D01*
X166862394Y-96337606D01*
X166988321Y-96440952D01*
X167131990Y-96517745D01*
X167287880Y-96565034D01*
X167450000Y-96581001D01*
X169950000Y-96581001D01*
X170112120Y-96565034D01*
X170148000Y-96554150D01*
X170148000Y-115958327D01*
X170103083Y-116416426D01*
X169982148Y-116816980D01*
X169785711Y-117186425D01*
X169521260Y-117510675D01*
X169198861Y-117777386D01*
X168830801Y-117976395D01*
X168431095Y-118100125D01*
X167975595Y-118148000D01*
X138041673Y-118148000D01*
X137583574Y-118103083D01*
X137183020Y-117982148D01*
X136813575Y-117785711D01*
X136489325Y-117521260D01*
X136222614Y-117198861D01*
X136023605Y-116830801D01*
X135899875Y-116431095D01*
X135852000Y-115975595D01*
X135852000Y-114760961D01*
X136573000Y-114760961D01*
X136573000Y-115239039D01*
X136666268Y-115707930D01*
X136849221Y-116149615D01*
X137114826Y-116547122D01*
X137452878Y-116885174D01*
X137850385Y-117150779D01*
X138292070Y-117333732D01*
X138760961Y-117427000D01*
X139239039Y-117427000D01*
X139707930Y-117333732D01*
X140149615Y-117150779D01*
X140547122Y-116885174D01*
X140885174Y-116547122D01*
X141150779Y-116149615D01*
X141333732Y-115707930D01*
X141427000Y-115239039D01*
X141427000Y-114760961D01*
X141333732Y-114292070D01*
X141150779Y-113850385D01*
X140885174Y-113452878D01*
X140547122Y-113114826D01*
X140149615Y-112849221D01*
X139707930Y-112666268D01*
X139239039Y-112573000D01*
X138760961Y-112573000D01*
X138292070Y-112666268D01*
X137850385Y-112849221D01*
X137452878Y-113114826D01*
X137114826Y-113452878D01*
X136849221Y-113850385D01*
X136666268Y-114292070D01*
X136573000Y-114760961D01*
X135852000Y-114760961D01*
X135852000Y-110150000D01*
X144236928Y-110150000D01*
X144240000Y-110614250D01*
X144398750Y-110773000D01*
X145373000Y-110773000D01*
X145373000Y-109673750D01*
X145627000Y-109673750D01*
X145627000Y-110773000D01*
X146601250Y-110773000D01*
X146760000Y-110614250D01*
X146763072Y-110150000D01*
X146750812Y-110025518D01*
X146714502Y-109905820D01*
X146655537Y-109795506D01*
X146576185Y-109698815D01*
X146479494Y-109619463D01*
X146369180Y-109560498D01*
X146249482Y-109524188D01*
X146125000Y-109511928D01*
X145785750Y-109515000D01*
X145627000Y-109673750D01*
X145373000Y-109673750D01*
X145214250Y-109515000D01*
X144875000Y-109511928D01*
X144750518Y-109524188D01*
X144630820Y-109560498D01*
X144520506Y-109619463D01*
X144423815Y-109698815D01*
X144344463Y-109795506D01*
X144285498Y-109905820D01*
X144249188Y-110025518D01*
X144236928Y-110150000D01*
X135852000Y-110150000D01*
X135852000Y-100250000D01*
X140036928Y-100250000D01*
X140040000Y-100714250D01*
X140198750Y-100873000D01*
X141173000Y-100873000D01*
X141173000Y-99773750D01*
X141427000Y-99773750D01*
X141427000Y-100873000D01*
X142401250Y-100873000D01*
X142560000Y-100714250D01*
X142563072Y-100250000D01*
X142553224Y-100150000D01*
X144011928Y-100150000D01*
X144015000Y-100714250D01*
X144173750Y-100873000D01*
X145373000Y-100873000D01*
X145373000Y-99673750D01*
X145214250Y-99515000D01*
X144650000Y-99511928D01*
X144525518Y-99524188D01*
X144405820Y-99560498D01*
X144295506Y-99619463D01*
X144198815Y-99698815D01*
X144119463Y-99795506D01*
X144060498Y-99905820D01*
X144024188Y-100025518D01*
X144011928Y-100150000D01*
X142553224Y-100150000D01*
X142550812Y-100125518D01*
X142514502Y-100005820D01*
X142455537Y-99895506D01*
X142376185Y-99798815D01*
X142279494Y-99719463D01*
X142169180Y-99660498D01*
X142049482Y-99624188D01*
X141925000Y-99611928D01*
X141585750Y-99615000D01*
X141427000Y-99773750D01*
X141173000Y-99773750D01*
X141014250Y-99615000D01*
X140675000Y-99611928D01*
X140550518Y-99624188D01*
X140430820Y-99660498D01*
X140320506Y-99719463D01*
X140223815Y-99798815D01*
X140144463Y-99895506D01*
X140085498Y-100005820D01*
X140049188Y-100125518D01*
X140036928Y-100250000D01*
X135852000Y-100250000D01*
X135852000Y-98150000D01*
X138411928Y-98150000D01*
X138424188Y-98274482D01*
X138460498Y-98394180D01*
X138519463Y-98504494D01*
X138598815Y-98601185D01*
X138695506Y-98680537D01*
X138805820Y-98739502D01*
X138925518Y-98775812D01*
X139050000Y-98788072D01*
X139614250Y-98785000D01*
X139773000Y-98626250D01*
X139773000Y-97427000D01*
X138573750Y-97427000D01*
X138415000Y-97585750D01*
X138411928Y-98150000D01*
X135852000Y-98150000D01*
X135852000Y-76760961D01*
X136573000Y-76760961D01*
X136573000Y-77239039D01*
X136666268Y-77707930D01*
X136849221Y-78149615D01*
X137114826Y-78547122D01*
X137452878Y-78885174D01*
X137850385Y-79150779D01*
X138292070Y-79333732D01*
X138760961Y-79427000D01*
X139239039Y-79427000D01*
X139707930Y-79333732D01*
X140149615Y-79150779D01*
X140547122Y-78885174D01*
X140885174Y-78547122D01*
X141150779Y-78149615D01*
X141333732Y-77707930D01*
X141427000Y-77239039D01*
X141427000Y-76760961D01*
X141333732Y-76292070D01*
X141150779Y-75850385D01*
X140885174Y-75452878D01*
X140547122Y-75114826D01*
X140149615Y-74849221D01*
X139707930Y-74666268D01*
X139239039Y-74573000D01*
X138760961Y-74573000D01*
X138292070Y-74666268D01*
X137850385Y-74849221D01*
X137452878Y-75114826D01*
X137114826Y-75452878D01*
X136849221Y-75850385D01*
X136666268Y-76292070D01*
X136573000Y-76760961D01*
X135852000Y-76760961D01*
X135852000Y-76041673D01*
X135896917Y-75583575D01*
X136017852Y-75183019D01*
X136214290Y-74813573D01*
X136478741Y-74489325D01*
X136801139Y-74222614D01*
X137169199Y-74023605D01*
X137568906Y-73899875D01*
X138024405Y-73852000D01*
X167958327Y-73852000D01*
X168416425Y-73896917D01*
G37*
X168416425Y-73896917D02*
X168816981Y-74017852D01*
X169186427Y-74214290D01*
X169510675Y-74478741D01*
X169777386Y-74801139D01*
X169976395Y-75169199D01*
X170100125Y-75568906D01*
X170148001Y-76024414D01*
X170148001Y-84045850D01*
X170112120Y-84034966D01*
X169950000Y-84018999D01*
X167450000Y-84018999D01*
X167287880Y-84034966D01*
X167131990Y-84082255D01*
X166988321Y-84159048D01*
X166862394Y-84262394D01*
X166759048Y-84388321D01*
X166682255Y-84531990D01*
X166634966Y-84687880D01*
X166618999Y-84850000D01*
X166618999Y-86850000D01*
X166634966Y-87012120D01*
X166682255Y-87168010D01*
X166725412Y-87248751D01*
X166545913Y-87069252D01*
X166328570Y-86924028D01*
X166087072Y-86823996D01*
X165830698Y-86773000D01*
X165569302Y-86773000D01*
X165312928Y-86823996D01*
X165281001Y-86837221D01*
X165281001Y-84850000D01*
X165265034Y-84687880D01*
X165217745Y-84531990D01*
X165140952Y-84388321D01*
X165037606Y-84262394D01*
X164911679Y-84159048D01*
X164768010Y-84082255D01*
X164612120Y-84034966D01*
X164450000Y-84018999D01*
X161950000Y-84018999D01*
X161787880Y-84034966D01*
X161631990Y-84082255D01*
X161488321Y-84159048D01*
X161362394Y-84262394D01*
X161259048Y-84388321D01*
X161182255Y-84531990D01*
X161174253Y-84558370D01*
X161086138Y-84345643D01*
X160902611Y-84070975D01*
X160808712Y-83977076D01*
X160901185Y-83901185D01*
X160980537Y-83804494D01*
X161039502Y-83694180D01*
X161075812Y-83574482D01*
X161088072Y-83450000D01*
X161085000Y-82885750D01*
X160926250Y-82727000D01*
X159727000Y-82727000D01*
X159727000Y-82747000D01*
X159473000Y-82747000D01*
X159473000Y-82727000D01*
X158273750Y-82727000D01*
X158115000Y-82885750D01*
X158111928Y-83450000D01*
X158124188Y-83574482D01*
X158160498Y-83694180D01*
X158219463Y-83804494D01*
X158298815Y-83901185D01*
X158391288Y-83977076D01*
X158297389Y-84070975D01*
X158113862Y-84345643D01*
X157987446Y-84650837D01*
X157923000Y-84974830D01*
X157923000Y-85305170D01*
X157932861Y-85354743D01*
X157109476Y-86178128D01*
X157070289Y-86210288D01*
X157038129Y-86249475D01*
X157038128Y-86249476D01*
X156941950Y-86366669D01*
X156846586Y-86545083D01*
X156787861Y-86738673D01*
X156768032Y-86940000D01*
X156773001Y-86990450D01*
X156773000Y-87618999D01*
X155881001Y-87618999D01*
X155881001Y-86650000D01*
X155865034Y-86487880D01*
X155817745Y-86331990D01*
X155740952Y-86188321D01*
X155637606Y-86062394D01*
X155511679Y-85959048D01*
X155368010Y-85882255D01*
X155212120Y-85834966D01*
X155050000Y-85818999D01*
X154832612Y-85818999D01*
X154865034Y-85712120D01*
X154881001Y-85550000D01*
X154881001Y-84050000D01*
X154865034Y-83887880D01*
X154817745Y-83731990D01*
X154740952Y-83588321D01*
X154637606Y-83462394D01*
X154622504Y-83450000D01*
X154637606Y-83437606D01*
X154740952Y-83311679D01*
X154817745Y-83168010D01*
X154865034Y-83012120D01*
X154881001Y-82850000D01*
X154881001Y-81750000D01*
X158111928Y-81750000D01*
X158115000Y-82314250D01*
X158273750Y-82473000D01*
X159473000Y-82473000D01*
X159473000Y-81273750D01*
X159727000Y-81273750D01*
X159727000Y-82473000D01*
X160926250Y-82473000D01*
X161085000Y-82314250D01*
X161088072Y-81750000D01*
X161075812Y-81625518D01*
X161039502Y-81505820D01*
X160980537Y-81395506D01*
X160901185Y-81298815D01*
X160804494Y-81219463D01*
X160694180Y-81160498D01*
X160574482Y-81124188D01*
X160450000Y-81111928D01*
X159885750Y-81115000D01*
X159727000Y-81273750D01*
X159473000Y-81273750D01*
X159314250Y-81115000D01*
X158750000Y-81111928D01*
X158625518Y-81124188D01*
X158505820Y-81160498D01*
X158395506Y-81219463D01*
X158298815Y-81298815D01*
X158219463Y-81395506D01*
X158160498Y-81505820D01*
X158124188Y-81625518D01*
X158111928Y-81750000D01*
X154881001Y-81750000D01*
X154881001Y-81350000D01*
X154865034Y-81187880D01*
X154817745Y-81031990D01*
X154740952Y-80888321D01*
X154637606Y-80762394D01*
X154511679Y-80659048D01*
X154368010Y-80582255D01*
X154212120Y-80534966D01*
X154050000Y-80518999D01*
X152750000Y-80518999D01*
X152587880Y-80534966D01*
X152431990Y-80582255D01*
X152288321Y-80659048D01*
X152162394Y-80762394D01*
X152059048Y-80888321D01*
X152047000Y-80910861D01*
X152047000Y-79930691D01*
X152089025Y-79902611D01*
X152290000Y-79701636D01*
X152490975Y-79902611D01*
X152765643Y-80086138D01*
X153070837Y-80212554D01*
X153394830Y-80277000D01*
X153725170Y-80277000D01*
X154049163Y-80212554D01*
X154354357Y-80086138D01*
X154629025Y-79902611D01*
X154722924Y-79808712D01*
X154798815Y-79901185D01*
X154895506Y-79980537D01*
X155005820Y-80039502D01*
X155125518Y-80075812D01*
X155250000Y-80088072D01*
X155814250Y-80085000D01*
X155973000Y-79926250D01*
X155973000Y-78727000D01*
X156227000Y-78727000D01*
X156227000Y-79926250D01*
X156385750Y-80085000D01*
X156950000Y-80088072D01*
X157074482Y-80075812D01*
X157194180Y-80039502D01*
X157304494Y-79980537D01*
X157401185Y-79901185D01*
X157480537Y-79804494D01*
X157539502Y-79694180D01*
X157575812Y-79574482D01*
X157588072Y-79450000D01*
X157585000Y-78885750D01*
X157426250Y-78727000D01*
X156227000Y-78727000D01*
X155973000Y-78727000D01*
X155953000Y-78727000D01*
X155953000Y-78473000D01*
X155973000Y-78473000D01*
X155973000Y-77273750D01*
X156227000Y-77273750D01*
X156227000Y-78473000D01*
X157426250Y-78473000D01*
X157585000Y-78314250D01*
X157588072Y-77750000D01*
X157575812Y-77625518D01*
X157539502Y-77505820D01*
X157480537Y-77395506D01*
X157401185Y-77298815D01*
X157304494Y-77219463D01*
X157194180Y-77160498D01*
X157074482Y-77124188D01*
X156950000Y-77111928D01*
X156385750Y-77115000D01*
X156227000Y-77273750D01*
X155973000Y-77273750D01*
X155814250Y-77115000D01*
X155250000Y-77111928D01*
X155125518Y-77124188D01*
X155005820Y-77160498D01*
X154895506Y-77219463D01*
X154798815Y-77298815D01*
X154722924Y-77391288D01*
X154677000Y-77345364D01*
X154677000Y-76787940D01*
X154727473Y-76760961D01*
X164573000Y-76760961D01*
X164573000Y-77239039D01*
X164666268Y-77707930D01*
X164849221Y-78149615D01*
X165114826Y-78547122D01*
X165452878Y-78885174D01*
X165850385Y-79150779D01*
X166292070Y-79333732D01*
X166760961Y-79427000D01*
X167239039Y-79427000D01*
X167707930Y-79333732D01*
X168149615Y-79150779D01*
X168547122Y-78885174D01*
X168885174Y-78547122D01*
X169150779Y-78149615D01*
X169333732Y-77707930D01*
X169427000Y-77239039D01*
X169427000Y-76760961D01*
X169333732Y-76292070D01*
X169150779Y-75850385D01*
X168885174Y-75452878D01*
X168547122Y-75114826D01*
X168149615Y-74849221D01*
X167707930Y-74666268D01*
X167239039Y-74573000D01*
X166760961Y-74573000D01*
X166292070Y-74666268D01*
X165850385Y-74849221D01*
X165452878Y-75114826D01*
X165114826Y-75452878D01*
X164849221Y-75850385D01*
X164666268Y-76292070D01*
X164573000Y-76760961D01*
X154727473Y-76760961D01*
X154811679Y-76715952D01*
X154937606Y-76612606D01*
X154988894Y-76550111D01*
X154995506Y-76555537D01*
X155105820Y-76614502D01*
X155225518Y-76650812D01*
X155350000Y-76663072D01*
X155814250Y-76660000D01*
X155973000Y-76501250D01*
X155973000Y-75527000D01*
X156227000Y-75527000D01*
X156227000Y-76501250D01*
X156385750Y-76660000D01*
X156850000Y-76663072D01*
X156974482Y-76650812D01*
X157094180Y-76614502D01*
X157204494Y-76555537D01*
X157301185Y-76476185D01*
X157380537Y-76379494D01*
X157439502Y-76269180D01*
X157475812Y-76149482D01*
X157488072Y-76025000D01*
X157485000Y-75685750D01*
X157326250Y-75527000D01*
X156227000Y-75527000D01*
X155973000Y-75527000D01*
X155953000Y-75527000D01*
X155953000Y-75273000D01*
X155973000Y-75273000D01*
X155973000Y-74298750D01*
X156227000Y-74298750D01*
X156227000Y-75273000D01*
X157326250Y-75273000D01*
X157485000Y-75114250D01*
X157488072Y-74775000D01*
X157475812Y-74650518D01*
X157439502Y-74530820D01*
X157380537Y-74420506D01*
X157301185Y-74323815D01*
X157204494Y-74244463D01*
X157094180Y-74185498D01*
X156974482Y-74149188D01*
X156850000Y-74136928D01*
X156385750Y-74140000D01*
X156227000Y-74298750D01*
X155973000Y-74298750D01*
X155814250Y-74140000D01*
X155350000Y-74136928D01*
X155225518Y-74149188D01*
X155105820Y-74185498D01*
X154995506Y-74244463D01*
X154988894Y-74249889D01*
X154937606Y-74187394D01*
X154811679Y-74084048D01*
X154668010Y-74007255D01*
X154512120Y-73959966D01*
X154350000Y-73943999D01*
X152850000Y-73943999D01*
X152687880Y-73959966D01*
X152531990Y-74007255D01*
X152388321Y-74084048D01*
X152262394Y-74187394D01*
X152159048Y-74313321D01*
X152153874Y-74323000D01*
X146452909Y-74323000D01*
X146400000Y-74317789D01*
X146188870Y-74338583D01*
X145985855Y-74400167D01*
X145798755Y-74500174D01*
X145760535Y-74531541D01*
X145634761Y-74634761D01*
X145601032Y-74675860D01*
X141875866Y-78401027D01*
X141834761Y-78434761D01*
X141700174Y-78598756D01*
X141600167Y-78785857D01*
X141538583Y-78988872D01*
X141525853Y-79118128D01*
X141517789Y-79200000D01*
X141523000Y-79252907D01*
X141523001Y-83866447D01*
X141437606Y-83762394D01*
X141311679Y-83659048D01*
X141168010Y-83582255D01*
X141012120Y-83534966D01*
X140850000Y-83518999D01*
X139150000Y-83518999D01*
X138987880Y-83534966D01*
X138831990Y-83582255D01*
X138688321Y-83659048D01*
X138562394Y-83762394D01*
X138459048Y-83888321D01*
X138382255Y-84031990D01*
X138334966Y-84187880D01*
X138318999Y-84350000D01*
X138318999Y-86050000D01*
X138334966Y-86212120D01*
X138382255Y-86368010D01*
X138459048Y-86511679D01*
X138562394Y-86637606D01*
X138688321Y-86740952D01*
X138831990Y-86817745D01*
X138973000Y-86860520D01*
X138973001Y-88799549D01*
X138968032Y-88850000D01*
X138973001Y-88900451D01*
X138987861Y-89051327D01*
X139046586Y-89244917D01*
X139141950Y-89423331D01*
X139270289Y-89579712D01*
X139309476Y-89611872D01*
X139988127Y-90290524D01*
X140020288Y-90329712D01*
X140176669Y-90458051D01*
X140355083Y-90553415D01*
X140380133Y-90561014D01*
X140382255Y-90568010D01*
X140459048Y-90711679D01*
X140562394Y-90837606D01*
X140688321Y-90940952D01*
X140831990Y-91017745D01*
X140951428Y-91053976D01*
X141041949Y-91223331D01*
X141170288Y-91379712D01*
X141209481Y-91411877D01*
X141529342Y-91731738D01*
X141400000Y-91718999D01*
X140200000Y-91718999D01*
X140037880Y-91734966D01*
X139881990Y-91782255D01*
X139738321Y-91859048D01*
X139700000Y-91890497D01*
X139661679Y-91859048D01*
X139518010Y-91782255D01*
X139362120Y-91734966D01*
X139200000Y-91718999D01*
X138000000Y-91718999D01*
X137837880Y-91734966D01*
X137681990Y-91782255D01*
X137538321Y-91859048D01*
X137412394Y-91962394D01*
X137309048Y-92088321D01*
X137232255Y-92231990D01*
X137184966Y-92387880D01*
X137168999Y-92550000D01*
X137168999Y-93274905D01*
X137062394Y-93362394D01*
X136959048Y-93488321D01*
X136882255Y-93631990D01*
X136834966Y-93787880D01*
X136818999Y-93950000D01*
X136818999Y-95250000D01*
X136834966Y-95412120D01*
X136882255Y-95568010D01*
X136959048Y-95711679D01*
X137062394Y-95837606D01*
X137188321Y-95940952D01*
X137331990Y-96017745D01*
X137487880Y-96065034D01*
X137650000Y-96081001D01*
X138531367Y-96081001D01*
X138519463Y-96095506D01*
X138460498Y-96205820D01*
X138424188Y-96325518D01*
X138411928Y-96450000D01*
X138415000Y-97014250D01*
X138573750Y-97173000D01*
X139773000Y-97173000D01*
X139773000Y-95973750D01*
X139682270Y-95883020D01*
X139737606Y-95837606D01*
X139840952Y-95711679D01*
X139867171Y-95662627D01*
X139898815Y-95701185D01*
X139995506Y-95780537D01*
X140105820Y-95839502D01*
X140148347Y-95852403D01*
X140027000Y-95973750D01*
X140027000Y-97173000D01*
X140047000Y-97173000D01*
X140047000Y-97427000D01*
X140027000Y-97427000D01*
X140027000Y-98626250D01*
X140185750Y-98785000D01*
X140750000Y-98788072D01*
X140874482Y-98775812D01*
X140994180Y-98739502D01*
X141104494Y-98680537D01*
X141201185Y-98601185D01*
X141277076Y-98508712D01*
X141370975Y-98602611D01*
X141645643Y-98786138D01*
X141950837Y-98912554D01*
X142274830Y-98977000D01*
X142605170Y-98977000D01*
X142929163Y-98912554D01*
X143234357Y-98786138D01*
X143509025Y-98602611D01*
X143710000Y-98401636D01*
X143910975Y-98602611D01*
X144185643Y-98786138D01*
X144490837Y-98912554D01*
X144814830Y-98977000D01*
X145145170Y-98977000D01*
X145469163Y-98912554D01*
X145774357Y-98786138D01*
X146049025Y-98602611D01*
X146282611Y-98369025D01*
X146310691Y-98327000D01*
X147820603Y-98327000D01*
X147349476Y-98798128D01*
X147310289Y-98830288D01*
X147278129Y-98869475D01*
X147278128Y-98869476D01*
X147181950Y-98986669D01*
X147086586Y-99165083D01*
X147027861Y-99358673D01*
X147008032Y-99560000D01*
X147013001Y-99610450D01*
X147013001Y-99669308D01*
X146970975Y-99697389D01*
X146877076Y-99791288D01*
X146801185Y-99698815D01*
X146704494Y-99619463D01*
X146594180Y-99560498D01*
X146474482Y-99524188D01*
X146350000Y-99511928D01*
X145785750Y-99515000D01*
X145627000Y-99673750D01*
X145627000Y-100873000D01*
X145647000Y-100873000D01*
X145647000Y-101127000D01*
X145627000Y-101127000D01*
X145627000Y-101147000D01*
X145373000Y-101147000D01*
X145373000Y-101127000D01*
X144173750Y-101127000D01*
X144015000Y-101285750D01*
X144011928Y-101850000D01*
X144024188Y-101974482D01*
X144060498Y-102094180D01*
X144119463Y-102204494D01*
X144198815Y-102301185D01*
X144291288Y-102377076D01*
X144205364Y-102463000D01*
X142702152Y-102463000D01*
X142692745Y-102431990D01*
X142615952Y-102288321D01*
X142512606Y-102162394D01*
X142450111Y-102111106D01*
X142455537Y-102104494D01*
X142514502Y-101994180D01*
X142550812Y-101874482D01*
X142563072Y-101750000D01*
X142560000Y-101285750D01*
X142401250Y-101127000D01*
X141427000Y-101127000D01*
X141427000Y-101147000D01*
X141173000Y-101147000D01*
X141173000Y-101127000D01*
X140198750Y-101127000D01*
X140040000Y-101285750D01*
X140036928Y-101750000D01*
X140049188Y-101874482D01*
X140085498Y-101994180D01*
X140144463Y-102104494D01*
X140149889Y-102111106D01*
X140087394Y-102162394D01*
X139984048Y-102288321D01*
X139907255Y-102431990D01*
X139859966Y-102587880D01*
X139843999Y-102750000D01*
X139843999Y-104250000D01*
X139859966Y-104412120D01*
X139907255Y-104568010D01*
X139984048Y-104711679D01*
X140087394Y-104837606D01*
X140213321Y-104940952D01*
X140356990Y-105017745D01*
X140512880Y-105065034D01*
X140675000Y-105081001D01*
X141925000Y-105081001D01*
X142087120Y-105065034D01*
X142243010Y-105017745D01*
X142386679Y-104940952D01*
X142512606Y-104837606D01*
X142615952Y-104711679D01*
X142666559Y-104617000D01*
X144205364Y-104617000D01*
X144423000Y-104834636D01*
X144423000Y-106047091D01*
X144417789Y-106099998D01*
X144423000Y-106152905D01*
X144423000Y-106152906D01*
X144438583Y-106311126D01*
X144500167Y-106514141D01*
X144600174Y-106701242D01*
X144734761Y-106865237D01*
X144775865Y-106898970D01*
X146001034Y-108124140D01*
X146034763Y-108165239D01*
X146198758Y-108299826D01*
X146385858Y-108399833D01*
X146588873Y-108461417D01*
X146747093Y-108477000D01*
X146747094Y-108477000D01*
X146800001Y-108482211D01*
X146852908Y-108477000D01*
X147414092Y-108477000D01*
X147415000Y-108614250D01*
X147573750Y-108773000D01*
X148923000Y-108773000D01*
X148923000Y-108753000D01*
X149177000Y-108753000D01*
X149177000Y-108773000D01*
X150526250Y-108773000D01*
X150685000Y-108614250D01*
X150685908Y-108477000D01*
X151023000Y-108477000D01*
X151023000Y-109203892D01*
X150687341Y-109539551D01*
X150685000Y-109185750D01*
X150526250Y-109027000D01*
X149177000Y-109027000D01*
X149177000Y-109047000D01*
X148923000Y-109047000D01*
X148923000Y-109027000D01*
X147573750Y-109027000D01*
X147415000Y-109185750D01*
X147411928Y-109650000D01*
X147424188Y-109774482D01*
X147453970Y-109872659D01*
X147359048Y-109988321D01*
X147282255Y-110131990D01*
X147234966Y-110287880D01*
X147218999Y-110450000D01*
X147218999Y-111950000D01*
X147234966Y-112112120D01*
X147282255Y-112268010D01*
X147311648Y-112323000D01*
X146887940Y-112323000D01*
X146815952Y-112188321D01*
X146712606Y-112062394D01*
X146650111Y-112011106D01*
X146655537Y-112004494D01*
X146714502Y-111894180D01*
X146750812Y-111774482D01*
X146763072Y-111650000D01*
X146760000Y-111185750D01*
X146601250Y-111027000D01*
X145627000Y-111027000D01*
X145627000Y-111047000D01*
X145373000Y-111047000D01*
X145373000Y-111027000D01*
X144398750Y-111027000D01*
X144240000Y-111185750D01*
X144236928Y-111650000D01*
X144249188Y-111774482D01*
X144285498Y-111894180D01*
X144344463Y-112004494D01*
X144349889Y-112011106D01*
X144287394Y-112062394D01*
X144184048Y-112188321D01*
X144107255Y-112331990D01*
X144059966Y-112487880D01*
X144043999Y-112650000D01*
X144043999Y-114150000D01*
X144059966Y-114312120D01*
X144107255Y-114468010D01*
X144184048Y-114611679D01*
X144287394Y-114737606D01*
X144413321Y-114840952D01*
X144556990Y-114917745D01*
X144712880Y-114965034D01*
X144875000Y-114981001D01*
X146125000Y-114981001D01*
X146287120Y-114965034D01*
X146443010Y-114917745D01*
X146586679Y-114840952D01*
X146712606Y-114737606D01*
X146815952Y-114611679D01*
X146887940Y-114477000D01*
X147254647Y-114477000D01*
X147282255Y-114568010D01*
X147359048Y-114711679D01*
X147462394Y-114837606D01*
X147588321Y-114940952D01*
X147731990Y-115017745D01*
X147887880Y-115065034D01*
X148024175Y-115078458D01*
X148050168Y-115164144D01*
X148150175Y-115351244D01*
X148284762Y-115515239D01*
X148325861Y-115548968D01*
X149701032Y-116924140D01*
X149734761Y-116965239D01*
X149798229Y-117017326D01*
X149898755Y-117099826D01*
X149938727Y-117121191D01*
X150085856Y-117199833D01*
X150215566Y-117239180D01*
X150288870Y-117261417D01*
X150500000Y-117282211D01*
X150552909Y-117277000D01*
X155947093Y-117277000D01*
X156000000Y-117282211D01*
X156052907Y-117277000D01*
X156052909Y-117277000D01*
X156211129Y-117261417D01*
X156414144Y-117199833D01*
X156601244Y-117099826D01*
X156765239Y-116965239D01*
X156798973Y-116924134D01*
X158962146Y-114760961D01*
X164573000Y-114760961D01*
X164573000Y-115239039D01*
X164666268Y-115707930D01*
X164849221Y-116149615D01*
X165114826Y-116547122D01*
X165452878Y-116885174D01*
X165850385Y-117150779D01*
X166292070Y-117333732D01*
X166760961Y-117427000D01*
X167239039Y-117427000D01*
X167707930Y-117333732D01*
X168149615Y-117150779D01*
X168547122Y-116885174D01*
X168885174Y-116547122D01*
X169150779Y-116149615D01*
X169333732Y-115707930D01*
X169427000Y-115239039D01*
X169427000Y-114760961D01*
X169333732Y-114292070D01*
X169150779Y-113850385D01*
X168885174Y-113452878D01*
X168547122Y-113114826D01*
X168149615Y-112849221D01*
X167707930Y-112666268D01*
X167239039Y-112573000D01*
X166760961Y-112573000D01*
X166292070Y-112666268D01*
X165850385Y-112849221D01*
X165452878Y-113114826D01*
X165114826Y-113452878D01*
X164849221Y-113850385D01*
X164666268Y-114292070D01*
X164573000Y-114760961D01*
X158962146Y-114760961D01*
X159924140Y-113798968D01*
X159965239Y-113765239D01*
X160026684Y-113690368D01*
X160088321Y-113740952D01*
X160231990Y-113817745D01*
X160387880Y-113865034D01*
X160550000Y-113881001D01*
X162250000Y-113881001D01*
X162412120Y-113865034D01*
X162568010Y-113817745D01*
X162711679Y-113740952D01*
X162837606Y-113637606D01*
X162940952Y-113511679D01*
X163017745Y-113368010D01*
X163065034Y-113212120D01*
X163081001Y-113050000D01*
X163081001Y-111350000D01*
X163065034Y-111187880D01*
X163017745Y-111031990D01*
X162940952Y-110888321D01*
X162852876Y-110781001D01*
X163850000Y-110781001D01*
X164012120Y-110765034D01*
X164168010Y-110717745D01*
X164311679Y-110640952D01*
X164437606Y-110537606D01*
X164540952Y-110411679D01*
X164617745Y-110268010D01*
X164665034Y-110112120D01*
X164681001Y-109950000D01*
X164681001Y-108450000D01*
X164665034Y-108287880D01*
X164617745Y-108131990D01*
X164540952Y-107988321D01*
X164437606Y-107862394D01*
X164311679Y-107759048D01*
X164262627Y-107732829D01*
X164301185Y-107701185D01*
X164380537Y-107604494D01*
X164439502Y-107494180D01*
X164475812Y-107374482D01*
X164488072Y-107250000D01*
X164485000Y-106785750D01*
X164326250Y-106627000D01*
X163327000Y-106627000D01*
X163327000Y-106647000D01*
X163073000Y-106647000D01*
X163073000Y-106627000D01*
X163053000Y-106627000D01*
X163053000Y-106373000D01*
X163073000Y-106373000D01*
X163073000Y-105273750D01*
X163327000Y-105273750D01*
X163327000Y-106373000D01*
X164326250Y-106373000D01*
X164485000Y-106214250D01*
X164488072Y-105750000D01*
X164475812Y-105625518D01*
X164439502Y-105505820D01*
X164380537Y-105395506D01*
X164301185Y-105298815D01*
X164204494Y-105219463D01*
X164094180Y-105160498D01*
X163974482Y-105124188D01*
X163850000Y-105111928D01*
X163485750Y-105115000D01*
X163327000Y-105273750D01*
X163073000Y-105273750D01*
X162914250Y-105115000D01*
X162550000Y-105111928D01*
X162425518Y-105124188D01*
X162305820Y-105160498D01*
X162195506Y-105219463D01*
X162098815Y-105298815D01*
X162019463Y-105395506D01*
X162008853Y-105415355D01*
X161940952Y-105288321D01*
X161837606Y-105162394D01*
X161711679Y-105059048D01*
X161568010Y-104982255D01*
X161412120Y-104934966D01*
X161250000Y-104918999D01*
X160400685Y-104918999D01*
X160277000Y-104795314D01*
X160277000Y-104746105D01*
X160746106Y-104277000D01*
X161465364Y-104277000D01*
X161530975Y-104342611D01*
X161805643Y-104526138D01*
X162110837Y-104652554D01*
X162434830Y-104717000D01*
X162765170Y-104717000D01*
X163089163Y-104652554D01*
X163394357Y-104526138D01*
X163669025Y-104342611D01*
X163902611Y-104109025D01*
X164086138Y-103834357D01*
X164212554Y-103529163D01*
X164277000Y-103205170D01*
X164277000Y-102874830D01*
X164212554Y-102550837D01*
X164086138Y-102245643D01*
X163902611Y-101970975D01*
X163808712Y-101877076D01*
X163901185Y-101801185D01*
X163980537Y-101704494D01*
X164039502Y-101594180D01*
X164075812Y-101474482D01*
X164088072Y-101350000D01*
X164085000Y-100785750D01*
X163926250Y-100627000D01*
X162727000Y-100627000D01*
X162727000Y-100647000D01*
X162473000Y-100647000D01*
X162473000Y-100627000D01*
X162453000Y-100627000D01*
X162453000Y-100373000D01*
X162473000Y-100373000D01*
X162473000Y-99173750D01*
X162727000Y-99173750D01*
X162727000Y-100373000D01*
X163926250Y-100373000D01*
X164085000Y-100214250D01*
X164088072Y-99650000D01*
X164075812Y-99525518D01*
X164039502Y-99405820D01*
X163980537Y-99295506D01*
X163901185Y-99198815D01*
X163804494Y-99119463D01*
X163694180Y-99060498D01*
X163574482Y-99024188D01*
X163450000Y-99011928D01*
X162885750Y-99015000D01*
X162727000Y-99173750D01*
X162473000Y-99173750D01*
X162314250Y-99015000D01*
X161750000Y-99011928D01*
X161625518Y-99024188D01*
X161505820Y-99060498D01*
X161395506Y-99119463D01*
X161377000Y-99134650D01*
X161377000Y-96349593D01*
X161488321Y-96440952D01*
X161631990Y-96517745D01*
X161787880Y-96565034D01*
X161950000Y-96581001D01*
X164450000Y-96581001D01*
X164612120Y-96565034D01*
X164768010Y-96517745D01*
X164911679Y-96440952D01*
X165037606Y-96337606D01*
X165140952Y-96211679D01*
X165217745Y-96068010D01*
X165265034Y-95912120D01*
X165281001Y-95750000D01*
X165281001Y-93762779D01*
X165312928Y-93776004D01*
X165569302Y-93827000D01*
X165830698Y-93827000D01*
X166087072Y-93776004D01*
X166328570Y-93675972D01*
X166545913Y-93530748D01*
X166725412Y-93351249D01*
X166682255Y-93431990D01*
X166634966Y-93587880D01*
X166618999Y-93750000D01*
X166618999Y-95750000D01*
X166634966Y-95912120D01*
X166682255Y-96068010D01*
X166759048Y-96211679D01*
X166862394Y-96337606D01*
X166988321Y-96440952D01*
X167131990Y-96517745D01*
X167287880Y-96565034D01*
X167450000Y-96581001D01*
X169950000Y-96581001D01*
X170112120Y-96565034D01*
X170148000Y-96554150D01*
X170148000Y-115958327D01*
X170103083Y-116416426D01*
X169982148Y-116816980D01*
X169785711Y-117186425D01*
X169521260Y-117510675D01*
X169198861Y-117777386D01*
X168830801Y-117976395D01*
X168431095Y-118100125D01*
X167975595Y-118148000D01*
X138041673Y-118148000D01*
X137583574Y-118103083D01*
X137183020Y-117982148D01*
X136813575Y-117785711D01*
X136489325Y-117521260D01*
X136222614Y-117198861D01*
X136023605Y-116830801D01*
X135899875Y-116431095D01*
X135852000Y-115975595D01*
X135852000Y-114760961D01*
X136573000Y-114760961D01*
X136573000Y-115239039D01*
X136666268Y-115707930D01*
X136849221Y-116149615D01*
X137114826Y-116547122D01*
X137452878Y-116885174D01*
X137850385Y-117150779D01*
X138292070Y-117333732D01*
X138760961Y-117427000D01*
X139239039Y-117427000D01*
X139707930Y-117333732D01*
X140149615Y-117150779D01*
X140547122Y-116885174D01*
X140885174Y-116547122D01*
X141150779Y-116149615D01*
X141333732Y-115707930D01*
X141427000Y-115239039D01*
X141427000Y-114760961D01*
X141333732Y-114292070D01*
X141150779Y-113850385D01*
X140885174Y-113452878D01*
X140547122Y-113114826D01*
X140149615Y-112849221D01*
X139707930Y-112666268D01*
X139239039Y-112573000D01*
X138760961Y-112573000D01*
X138292070Y-112666268D01*
X137850385Y-112849221D01*
X137452878Y-113114826D01*
X137114826Y-113452878D01*
X136849221Y-113850385D01*
X136666268Y-114292070D01*
X136573000Y-114760961D01*
X135852000Y-114760961D01*
X135852000Y-110150000D01*
X144236928Y-110150000D01*
X144240000Y-110614250D01*
X144398750Y-110773000D01*
X145373000Y-110773000D01*
X145373000Y-109673750D01*
X145627000Y-109673750D01*
X145627000Y-110773000D01*
X146601250Y-110773000D01*
X146760000Y-110614250D01*
X146763072Y-110150000D01*
X146750812Y-110025518D01*
X146714502Y-109905820D01*
X146655537Y-109795506D01*
X146576185Y-109698815D01*
X146479494Y-109619463D01*
X146369180Y-109560498D01*
X146249482Y-109524188D01*
X146125000Y-109511928D01*
X145785750Y-109515000D01*
X145627000Y-109673750D01*
X145373000Y-109673750D01*
X145214250Y-109515000D01*
X144875000Y-109511928D01*
X144750518Y-109524188D01*
X144630820Y-109560498D01*
X144520506Y-109619463D01*
X144423815Y-109698815D01*
X144344463Y-109795506D01*
X144285498Y-109905820D01*
X144249188Y-110025518D01*
X144236928Y-110150000D01*
X135852000Y-110150000D01*
X135852000Y-100250000D01*
X140036928Y-100250000D01*
X140040000Y-100714250D01*
X140198750Y-100873000D01*
X141173000Y-100873000D01*
X141173000Y-99773750D01*
X141427000Y-99773750D01*
X141427000Y-100873000D01*
X142401250Y-100873000D01*
X142560000Y-100714250D01*
X142563072Y-100250000D01*
X142553224Y-100150000D01*
X144011928Y-100150000D01*
X144015000Y-100714250D01*
X144173750Y-100873000D01*
X145373000Y-100873000D01*
X145373000Y-99673750D01*
X145214250Y-99515000D01*
X144650000Y-99511928D01*
X144525518Y-99524188D01*
X144405820Y-99560498D01*
X144295506Y-99619463D01*
X144198815Y-99698815D01*
X144119463Y-99795506D01*
X144060498Y-99905820D01*
X144024188Y-100025518D01*
X144011928Y-100150000D01*
X142553224Y-100150000D01*
X142550812Y-100125518D01*
X142514502Y-100005820D01*
X142455537Y-99895506D01*
X142376185Y-99798815D01*
X142279494Y-99719463D01*
X142169180Y-99660498D01*
X142049482Y-99624188D01*
X141925000Y-99611928D01*
X141585750Y-99615000D01*
X141427000Y-99773750D01*
X141173000Y-99773750D01*
X141014250Y-99615000D01*
X140675000Y-99611928D01*
X140550518Y-99624188D01*
X140430820Y-99660498D01*
X140320506Y-99719463D01*
X140223815Y-99798815D01*
X140144463Y-99895506D01*
X140085498Y-100005820D01*
X140049188Y-100125518D01*
X140036928Y-100250000D01*
X135852000Y-100250000D01*
X135852000Y-98150000D01*
X138411928Y-98150000D01*
X138424188Y-98274482D01*
X138460498Y-98394180D01*
X138519463Y-98504494D01*
X138598815Y-98601185D01*
X138695506Y-98680537D01*
X138805820Y-98739502D01*
X138925518Y-98775812D01*
X139050000Y-98788072D01*
X139614250Y-98785000D01*
X139773000Y-98626250D01*
X139773000Y-97427000D01*
X138573750Y-97427000D01*
X138415000Y-97585750D01*
X138411928Y-98150000D01*
X135852000Y-98150000D01*
X135852000Y-76760961D01*
X136573000Y-76760961D01*
X136573000Y-77239039D01*
X136666268Y-77707930D01*
X136849221Y-78149615D01*
X137114826Y-78547122D01*
X137452878Y-78885174D01*
X137850385Y-79150779D01*
X138292070Y-79333732D01*
X138760961Y-79427000D01*
X139239039Y-79427000D01*
X139707930Y-79333732D01*
X140149615Y-79150779D01*
X140547122Y-78885174D01*
X140885174Y-78547122D01*
X141150779Y-78149615D01*
X141333732Y-77707930D01*
X141427000Y-77239039D01*
X141427000Y-76760961D01*
X141333732Y-76292070D01*
X141150779Y-75850385D01*
X140885174Y-75452878D01*
X140547122Y-75114826D01*
X140149615Y-74849221D01*
X139707930Y-74666268D01*
X139239039Y-74573000D01*
X138760961Y-74573000D01*
X138292070Y-74666268D01*
X137850385Y-74849221D01*
X137452878Y-75114826D01*
X137114826Y-75452878D01*
X136849221Y-75850385D01*
X136666268Y-76292070D01*
X136573000Y-76760961D01*
X135852000Y-76760961D01*
X135852000Y-76041673D01*
X135896917Y-75583575D01*
X136017852Y-75183019D01*
X136214290Y-74813573D01*
X136478741Y-74489325D01*
X136801139Y-74222614D01*
X137169199Y-74023605D01*
X137568906Y-73899875D01*
X138024405Y-73852000D01*
X167958327Y-73852000D01*
X168416425Y-73896917D01*
G36*
X146970975Y-104842611D02*
G01*
X147245643Y-105026138D01*
X147550837Y-105152554D01*
X147874830Y-105217000D01*
X148205170Y-105217000D01*
X148254743Y-105207139D01*
X149370603Y-106323000D01*
X147246110Y-106323000D01*
X146577000Y-105653891D01*
X146577000Y-104834636D01*
X146770000Y-104641636D01*
X146970975Y-104842611D01*
G37*
X146970975Y-104842611D02*
X147245643Y-105026138D01*
X147550837Y-105152554D01*
X147874830Y-105217000D01*
X148205170Y-105217000D01*
X148254743Y-105207139D01*
X149370603Y-106323000D01*
X147246110Y-106323000D01*
X146577000Y-105653891D01*
X146577000Y-104834636D01*
X146770000Y-104641636D01*
X146970975Y-104842611D01*
G36*
X156823000Y-104653892D02*
G01*
X156584522Y-104892370D01*
X156612140Y-104801327D01*
X156627000Y-104650451D01*
X156627000Y-104650442D01*
X156631968Y-104600001D01*
X156627000Y-104549560D01*
X156627000Y-99200443D01*
X156631968Y-99150000D01*
X156627000Y-99099556D01*
X156627000Y-99099549D01*
X156612140Y-98948673D01*
X156604984Y-98925082D01*
X156553415Y-98755082D01*
X156458051Y-98576668D01*
X156361873Y-98459475D01*
X156361868Y-98459470D01*
X156329712Y-98420288D01*
X156290530Y-98388132D01*
X154887396Y-96985000D01*
X154927002Y-96985000D01*
X154927002Y-96830252D01*
X155081750Y-96985000D01*
X155185289Y-96973564D01*
X155304341Y-96935189D01*
X155413619Y-96874325D01*
X155508923Y-96793312D01*
X155586591Y-96695263D01*
X155643638Y-96583945D01*
X155677871Y-96463637D01*
X155687977Y-96338961D01*
X155685000Y-96035750D01*
X155526250Y-95877000D01*
X155081001Y-95877000D01*
X155081001Y-95623000D01*
X155526250Y-95623000D01*
X155685000Y-95464250D01*
X155685817Y-95381001D01*
X156823001Y-95381001D01*
X156823000Y-104653892D01*
G37*
X156823000Y-104653892D02*
X156584522Y-104892370D01*
X156612140Y-104801327D01*
X156627000Y-104650451D01*
X156627000Y-104650442D01*
X156631968Y-104600001D01*
X156627000Y-104549560D01*
X156627000Y-99200443D01*
X156631968Y-99150000D01*
X156627000Y-99099556D01*
X156627000Y-99099549D01*
X156612140Y-98948673D01*
X156604984Y-98925082D01*
X156553415Y-98755082D01*
X156458051Y-98576668D01*
X156361873Y-98459475D01*
X156361868Y-98459470D01*
X156329712Y-98420288D01*
X156290530Y-98388132D01*
X154887396Y-96985000D01*
X154927002Y-96985000D01*
X154927002Y-96830252D01*
X155081750Y-96985000D01*
X155185289Y-96973564D01*
X155304341Y-96935189D01*
X155413619Y-96874325D01*
X155508923Y-96793312D01*
X155586591Y-96695263D01*
X155643638Y-96583945D01*
X155677871Y-96463637D01*
X155687977Y-96338961D01*
X155685000Y-96035750D01*
X155526250Y-95877000D01*
X155081001Y-95877000D01*
X155081001Y-95623000D01*
X155526250Y-95623000D01*
X155685000Y-95464250D01*
X155685817Y-95381001D01*
X156823001Y-95381001D01*
X156823000Y-104653892D01*
G36*
X146938364Y-102270000D02*
G01*
X146770000Y-102438364D01*
X146708712Y-102377076D01*
X146801185Y-102301185D01*
X146877076Y-102208712D01*
X146938364Y-102270000D01*
G37*
X146938364Y-102270000D02*
X146770000Y-102438364D01*
X146708712Y-102377076D01*
X146801185Y-102301185D01*
X146877076Y-102208712D01*
X146938364Y-102270000D01*
G36*
X141227000Y-94473000D02*
G01*
X141247000Y-94473000D01*
X141247000Y-94727000D01*
X141227000Y-94727000D01*
X141227000Y-95726250D01*
X141385750Y-95885000D01*
X141537673Y-95886005D01*
X141370975Y-95997389D01*
X141277076Y-96091288D01*
X141201185Y-95998815D01*
X141104494Y-95919463D01*
X140994180Y-95860498D01*
X140874927Y-95824323D01*
X140973000Y-95726250D01*
X140973000Y-94727000D01*
X140953000Y-94727000D01*
X140953000Y-94473000D01*
X140973000Y-94473000D01*
X140973000Y-94453000D01*
X141227000Y-94453000D01*
X141227000Y-94473000D01*
G37*
X141227000Y-94473000D02*
X141247000Y-94473000D01*
X141247000Y-94727000D01*
X141227000Y-94727000D01*
X141227000Y-95726250D01*
X141385750Y-95885000D01*
X141537673Y-95886005D01*
X141370975Y-95997389D01*
X141277076Y-96091288D01*
X141201185Y-95998815D01*
X141104494Y-95919463D01*
X140994180Y-95860498D01*
X140874927Y-95824323D01*
X140973000Y-95726250D01*
X140973000Y-94727000D01*
X140953000Y-94727000D01*
X140953000Y-94473000D01*
X140973000Y-94473000D01*
X140973000Y-94453000D01*
X141227000Y-94453000D01*
X141227000Y-94473000D01*
G36*
X166862394Y-87437606D02*
G01*
X166988321Y-87540952D01*
X167131990Y-87617745D01*
X167287880Y-87665034D01*
X167450000Y-87681001D01*
X169950000Y-87681001D01*
X170112120Y-87665034D01*
X170148001Y-87654150D01*
X170148001Y-92945850D01*
X170112120Y-92934966D01*
X169950000Y-92918999D01*
X167450000Y-92918999D01*
X167287880Y-92934966D01*
X167131990Y-92982255D01*
X166988321Y-93059048D01*
X166862394Y-93162394D01*
X166813840Y-93221557D01*
X166875972Y-93128570D01*
X166976004Y-92887072D01*
X167027000Y-92630698D01*
X167027000Y-92369302D01*
X166976004Y-92112928D01*
X166875972Y-91871430D01*
X166730748Y-91654087D01*
X166545913Y-91469252D01*
X166328570Y-91324028D01*
X166087072Y-91223996D01*
X165830698Y-91173000D01*
X165569302Y-91173000D01*
X165312928Y-91223996D01*
X165081001Y-91320064D01*
X165081001Y-90850000D01*
X165066228Y-90700000D01*
X165081001Y-90550000D01*
X165081001Y-90050000D01*
X165066228Y-89900000D01*
X165081001Y-89750000D01*
X165081001Y-89279936D01*
X165312928Y-89376004D01*
X165569302Y-89427000D01*
X165830698Y-89427000D01*
X166087072Y-89376004D01*
X166328570Y-89275972D01*
X166545913Y-89130748D01*
X166730748Y-88945913D01*
X166875972Y-88728570D01*
X166976004Y-88487072D01*
X167027000Y-88230698D01*
X167027000Y-87969302D01*
X166976004Y-87712928D01*
X166875972Y-87471430D01*
X166813840Y-87378443D01*
X166862394Y-87437606D01*
G37*
X166862394Y-87437606D02*
X166988321Y-87540952D01*
X167131990Y-87617745D01*
X167287880Y-87665034D01*
X167450000Y-87681001D01*
X169950000Y-87681001D01*
X170112120Y-87665034D01*
X170148001Y-87654150D01*
X170148001Y-92945850D01*
X170112120Y-92934966D01*
X169950000Y-92918999D01*
X167450000Y-92918999D01*
X167287880Y-92934966D01*
X167131990Y-92982255D01*
X166988321Y-93059048D01*
X166862394Y-93162394D01*
X166813840Y-93221557D01*
X166875972Y-93128570D01*
X166976004Y-92887072D01*
X167027000Y-92630698D01*
X167027000Y-92369302D01*
X166976004Y-92112928D01*
X166875972Y-91871430D01*
X166730748Y-91654087D01*
X166545913Y-91469252D01*
X166328570Y-91324028D01*
X166087072Y-91223996D01*
X165830698Y-91173000D01*
X165569302Y-91173000D01*
X165312928Y-91223996D01*
X165081001Y-91320064D01*
X165081001Y-90850000D01*
X165066228Y-90700000D01*
X165081001Y-90550000D01*
X165081001Y-90050000D01*
X165066228Y-89900000D01*
X165081001Y-89750000D01*
X165081001Y-89279936D01*
X165312928Y-89376004D01*
X165569302Y-89427000D01*
X165830698Y-89427000D01*
X166087072Y-89376004D01*
X166328570Y-89275972D01*
X166545913Y-89130748D01*
X166730748Y-88945913D01*
X166875972Y-88728570D01*
X166976004Y-88487072D01*
X167027000Y-88230698D01*
X167027000Y-87969302D01*
X166976004Y-87712928D01*
X166875972Y-87471430D01*
X166813840Y-87378443D01*
X166862394Y-87437606D01*
G36*
X161259048Y-87311679D02*
G01*
X161362394Y-87437606D01*
X161488321Y-87540952D01*
X161631990Y-87617745D01*
X161787880Y-87665034D01*
X161950000Y-87681001D01*
X164437221Y-87681001D01*
X164423996Y-87712928D01*
X164400239Y-87832364D01*
X164367705Y-87822878D01*
X164243098Y-87811965D01*
X163385750Y-87815000D01*
X163227000Y-87973750D01*
X163227000Y-88418999D01*
X162973000Y-88418999D01*
X162973000Y-87973750D01*
X162814250Y-87815000D01*
X161956902Y-87811965D01*
X161832295Y-87822878D01*
X161712211Y-87857892D01*
X161601266Y-87915659D01*
X161503722Y-87993961D01*
X161423328Y-88089788D01*
X161363174Y-88199458D01*
X161325572Y-88318756D01*
X161315000Y-88418250D01*
X161470458Y-88573708D01*
X161362394Y-88662394D01*
X161259048Y-88788321D01*
X161182255Y-88931990D01*
X161134966Y-89087880D01*
X161118999Y-89250000D01*
X161118999Y-89273000D01*
X160590398Y-89273000D01*
X160612140Y-89201327D01*
X160627000Y-89050451D01*
X160627000Y-89050444D01*
X160631191Y-89007891D01*
X160669025Y-88982611D01*
X160902611Y-88749025D01*
X161086138Y-88474357D01*
X161212554Y-88169163D01*
X161277000Y-87845170D01*
X161277000Y-87514830D01*
X161223281Y-87244763D01*
X161259048Y-87311679D01*
G37*
X161259048Y-87311679D02*
X161362394Y-87437606D01*
X161488321Y-87540952D01*
X161631990Y-87617745D01*
X161787880Y-87665034D01*
X161950000Y-87681001D01*
X164437221Y-87681001D01*
X164423996Y-87712928D01*
X164400239Y-87832364D01*
X164367705Y-87822878D01*
X164243098Y-87811965D01*
X163385750Y-87815000D01*
X163227000Y-87973750D01*
X163227000Y-88418999D01*
X162973000Y-88418999D01*
X162973000Y-87973750D01*
X162814250Y-87815000D01*
X161956902Y-87811965D01*
X161832295Y-87822878D01*
X161712211Y-87857892D01*
X161601266Y-87915659D01*
X161503722Y-87993961D01*
X161423328Y-88089788D01*
X161363174Y-88199458D01*
X161325572Y-88318756D01*
X161315000Y-88418250D01*
X161470458Y-88573708D01*
X161362394Y-88662394D01*
X161259048Y-88788321D01*
X161182255Y-88931990D01*
X161134966Y-89087880D01*
X161118999Y-89250000D01*
X161118999Y-89273000D01*
X160590398Y-89273000D01*
X160612140Y-89201327D01*
X160627000Y-89050451D01*
X160627000Y-89050444D01*
X160631191Y-89007891D01*
X160669025Y-88982611D01*
X160902611Y-88749025D01*
X161086138Y-88474357D01*
X161212554Y-88169163D01*
X161277000Y-87845170D01*
X161277000Y-87514830D01*
X161223281Y-87244763D01*
X161259048Y-87311679D01*
G36*
X152159048Y-76486679D02*
G01*
X152262394Y-76612606D01*
X152388321Y-76715952D01*
X152523000Y-76787940D01*
X152523001Y-77275990D01*
X152490975Y-77297389D01*
X152290000Y-77498364D01*
X152089025Y-77297389D01*
X151814357Y-77113862D01*
X151509163Y-76987446D01*
X151185170Y-76923000D01*
X150854830Y-76923000D01*
X150530837Y-76987446D01*
X150225643Y-77113862D01*
X149950975Y-77297389D01*
X149750000Y-77498364D01*
X149549025Y-77297389D01*
X149274357Y-77113862D01*
X148969163Y-76987446D01*
X148645170Y-76923000D01*
X148314830Y-76923000D01*
X147990837Y-76987446D01*
X147685643Y-77113862D01*
X147410975Y-77297389D01*
X147177389Y-77530975D01*
X146993862Y-77805643D01*
X146867446Y-78110837D01*
X146803000Y-78434830D01*
X146803000Y-78765170D01*
X146816828Y-78834688D01*
X146800168Y-78865856D01*
X146738584Y-79068871D01*
X146717789Y-79280000D01*
X146723001Y-79332916D01*
X146723001Y-79990511D01*
X146688321Y-80009048D01*
X146562394Y-80112394D01*
X146459048Y-80238321D01*
X146382255Y-80381990D01*
X146334966Y-80537880D01*
X146318999Y-80700000D01*
X146318999Y-82200000D01*
X146334966Y-82362120D01*
X146382255Y-82518010D01*
X146459048Y-82661679D01*
X146562394Y-82787606D01*
X146577496Y-82800000D01*
X146562394Y-82812394D01*
X146459048Y-82938321D01*
X146382255Y-83081990D01*
X146334966Y-83237880D01*
X146318999Y-83400000D01*
X146318999Y-84900000D01*
X146334966Y-85062120D01*
X146382255Y-85218010D01*
X146459048Y-85361679D01*
X146562394Y-85487606D01*
X146688321Y-85590952D01*
X146831990Y-85667745D01*
X146987880Y-85715034D01*
X147150000Y-85731001D01*
X148450000Y-85731001D01*
X148612120Y-85715034D01*
X148768010Y-85667745D01*
X148883113Y-85606221D01*
X148923001Y-85646108D01*
X148923001Y-85818000D01*
X146051572Y-85818000D01*
X146051572Y-86150851D01*
X146011129Y-86138583D01*
X145994240Y-86136920D01*
X145992745Y-86131990D01*
X145915952Y-85988321D01*
X145812606Y-85862394D01*
X145750111Y-85811106D01*
X145755537Y-85804494D01*
X145814502Y-85694180D01*
X145850812Y-85574482D01*
X145863072Y-85450000D01*
X145860000Y-84985750D01*
X145701250Y-84827000D01*
X144727000Y-84827000D01*
X144727000Y-84847000D01*
X144473000Y-84847000D01*
X144473000Y-84827000D01*
X144453000Y-84827000D01*
X144453000Y-84573000D01*
X144473000Y-84573000D01*
X144473000Y-83473750D01*
X144727000Y-83473750D01*
X144727000Y-84573000D01*
X145701250Y-84573000D01*
X145860000Y-84414250D01*
X145863072Y-83950000D01*
X145850812Y-83825518D01*
X145814502Y-83705820D01*
X145755537Y-83595506D01*
X145676185Y-83498815D01*
X145579494Y-83419463D01*
X145469180Y-83360498D01*
X145349482Y-83324188D01*
X145225000Y-83311928D01*
X144885750Y-83315000D01*
X144727000Y-83473750D01*
X144473000Y-83473750D01*
X144314250Y-83315000D01*
X143975000Y-83311928D01*
X143850518Y-83324188D01*
X143730820Y-83360498D01*
X143677000Y-83389266D01*
X143677000Y-79646107D01*
X146846108Y-76477000D01*
X152153874Y-76477000D01*
X152159048Y-76486679D01*
G37*
X152159048Y-76486679D02*
X152262394Y-76612606D01*
X152388321Y-76715952D01*
X152523000Y-76787940D01*
X152523001Y-77275990D01*
X152490975Y-77297389D01*
X152290000Y-77498364D01*
X152089025Y-77297389D01*
X151814357Y-77113862D01*
X151509163Y-76987446D01*
X151185170Y-76923000D01*
X150854830Y-76923000D01*
X150530837Y-76987446D01*
X150225643Y-77113862D01*
X149950975Y-77297389D01*
X149750000Y-77498364D01*
X149549025Y-77297389D01*
X149274357Y-77113862D01*
X148969163Y-76987446D01*
X148645170Y-76923000D01*
X148314830Y-76923000D01*
X147990837Y-76987446D01*
X147685643Y-77113862D01*
X147410975Y-77297389D01*
X147177389Y-77530975D01*
X146993862Y-77805643D01*
X146867446Y-78110837D01*
X146803000Y-78434830D01*
X146803000Y-78765170D01*
X146816828Y-78834688D01*
X146800168Y-78865856D01*
X146738584Y-79068871D01*
X146717789Y-79280000D01*
X146723001Y-79332916D01*
X146723001Y-79990511D01*
X146688321Y-80009048D01*
X146562394Y-80112394D01*
X146459048Y-80238321D01*
X146382255Y-80381990D01*
X146334966Y-80537880D01*
X146318999Y-80700000D01*
X146318999Y-82200000D01*
X146334966Y-82362120D01*
X146382255Y-82518010D01*
X146459048Y-82661679D01*
X146562394Y-82787606D01*
X146577496Y-82800000D01*
X146562394Y-82812394D01*
X146459048Y-82938321D01*
X146382255Y-83081990D01*
X146334966Y-83237880D01*
X146318999Y-83400000D01*
X146318999Y-84900000D01*
X146334966Y-85062120D01*
X146382255Y-85218010D01*
X146459048Y-85361679D01*
X146562394Y-85487606D01*
X146688321Y-85590952D01*
X146831990Y-85667745D01*
X146987880Y-85715034D01*
X147150000Y-85731001D01*
X148450000Y-85731001D01*
X148612120Y-85715034D01*
X148768010Y-85667745D01*
X148883113Y-85606221D01*
X148923001Y-85646108D01*
X148923001Y-85818000D01*
X146051572Y-85818000D01*
X146051572Y-86150851D01*
X146011129Y-86138583D01*
X145994240Y-86136920D01*
X145992745Y-86131990D01*
X145915952Y-85988321D01*
X145812606Y-85862394D01*
X145750111Y-85811106D01*
X145755537Y-85804494D01*
X145814502Y-85694180D01*
X145850812Y-85574482D01*
X145863072Y-85450000D01*
X145860000Y-84985750D01*
X145701250Y-84827000D01*
X144727000Y-84827000D01*
X144727000Y-84847000D01*
X144473000Y-84847000D01*
X144473000Y-84827000D01*
X144453000Y-84827000D01*
X144453000Y-84573000D01*
X144473000Y-84573000D01*
X144473000Y-83473750D01*
X144727000Y-83473750D01*
X144727000Y-84573000D01*
X145701250Y-84573000D01*
X145860000Y-84414250D01*
X145863072Y-83950000D01*
X145850812Y-83825518D01*
X145814502Y-83705820D01*
X145755537Y-83595506D01*
X145676185Y-83498815D01*
X145579494Y-83419463D01*
X145469180Y-83360498D01*
X145349482Y-83324188D01*
X145225000Y-83311928D01*
X144885750Y-83315000D01*
X144727000Y-83473750D01*
X144473000Y-83473750D01*
X144314250Y-83315000D01*
X143975000Y-83311928D01*
X143850518Y-83324188D01*
X143730820Y-83360498D01*
X143677000Y-83389266D01*
X143677000Y-79646107D01*
X146846108Y-76477000D01*
X152153874Y-76477000D01*
X152159048Y-76486679D01*
M02*
